<?xml version="1.0" encoding="UTF-8"?>
<!-- Created with Inkscape (http://www.inkscape.org/) -->
<svg id="svg5" width="17.198mm" height="17.231mm" version="1.1" viewBox="0 0 17.198 17.231" xmlns="http://www.w3.org/2000/svg" xmlns:xlink="http://www.w3.org/1999/xlink">
 <defs id="defs2">
  <filter id="filter3270" x="-6.75e-5" y="-6.75e-5" width="1.0001" height="1.0001" color-interpolation-filters="sRGB">
   <feGaussianBlur id="feGaussianBlur3272" stdDeviation="0.001125"/>
  </filter>
  <linearGradient id="linearGradient5676" x1="1.2723" x2="39.467" y1="295.99" y2="295.99" gradientUnits="userSpaceOnUse">
   <stop id="stop2853" stop-color="#ff8f1c" offset="0"/>
   <stop id="stop2855" stop-color="#509e2f" offset="1"/>
  </linearGradient>
 </defs>
 <g id="layer1" transform="translate(-5.7929 -1.0651)">
  <g id="g16086">
   <g id="g10" transform="matrix(.26008 0 0 .26008 7.6298 1.0979)">
    <path id="path5464" d="m4.2711 61.02c-0.010962 0.01146-0.010962 1.8273-0.033596 2.3012-0.022385 0.38318-0.056477 1.2067-0.86859 1.2067-0.83475 0-1.0378-0.95891-1.1055-1.3759-0.078873-0.46253-0.078873-0.84643-0.078873-1.0151 0-0.54165 0.033844-2.0536 1.3085-2.0536 0.38366 0 0.59789 0.1132 0.76708 0.20303zm-3.2711 1.3314c0 3.1808 1.6921 3.1808 1.9402 3.1808 0.6994 0 1.1507-0.38366 1.3423-1.049l0.022634 1.0037c0.21447-0.01142 0.42869-0.03384 0.77827-0.03384 0.12415 0 0.22542 0 0.31598 0.01142 0.090314 0 0.18039 0.01096 0.2819 0.02238-0.18039-0.36078-0.31574-1.1729-0.31574-2.9332 0-1.7145 0-4.6134 0.14655-5.4934-0.40581 0.19208-0.75588 0.31623-1.523 0.38366 0.30454 0.32718 0.30454 0.49637 0.30454 1.985-0.21398-0.06743-0.48493-0.14655-0.94746-0.14655-2.0191 2.17e-4 -2.3463 1.7601-2.3463 3.069" fill="#b3b3b3" stroke-width=".24344"/>
    <path id="path5466" d="m7.1176 61.775c0.011458-0.93627 0.20327-1.771 1.0039-1.771 0.88003 0 0.94722 0.96986 0.92482 1.771zm3.0454 0.1132c0-1.3199-0.25926-2.6175-1.9288-2.6175-2.301 0-2.301 2.55-2.301 3.0909 0 2.2898 1.0263 3.1922 2.7523 3.1922 0.76659 0 1.1393-0.11222 1.3423-0.16919-0.01121-0.40606 0.04504-0.66556 0.1132-1.0151-0.23735 0.14704-0.54189 0.33862-1.2187 0.33862-1.7598 0-1.7825-1.6023-1.7825-2.1549h3.0011l0.02192-0.66507" fill="#b3b3b3" stroke-width=".24344"/>
    <path id="path5468" d="m13.833 62.373c0 1.049-0.19158 2.4592-1.5001 2.4592-0.18064 0-0.40606-0.03434-0.5526-0.06792-0.02263-0.40605-0.02263-1.1055-0.02263-1.9176 0-0.97035 0.10127-1.4772 0.18063-1.726 0.23662-0.80067 0.76683-0.81163 0.8681-0.81163 0.85739 0 1.0266 1.1843 1.0266 2.0639zm-3.2372 1.2296c0 0.835 0 1.3085-0.13535 1.6693 0.46253 0.18063 1.0375 0.2819 1.726 0.2819 0.4399 0 1.7145 0 2.4025-1.4098 0.32718-0.65436 0.43989-1.5344 0.43989-2.2 0-0.40606-0.04528-1.297-0.37222-1.8613-0.3155-0.52972-0.82331-0.80067-1.3645-0.80067-1.0831 0-1.3988 0.90243-1.5677 1.365 0-0.57525 0.01096-2.5831 0.10103-3.6097-0.73299 0.33862-1.1846 0.39462-1.6693 0.43989 0.43989 0.18014 0.43989 0.92531 0.43989 3.3507v2.7747" fill="#b3b3b3" stroke-width=".24344"/>
    <path id="path5470" d="m17.197 65.487c-0.22591-0.03384-0.38415-0.05648-0.71133-0.05648-0.36029 0-0.60908 0.02288-0.8681 0.05648 0.11271-0.21447 0.15774-0.31622 0.19158-1.049 0.04528-1.0042 0.05648-3.6891-0.02238-4.2531-0.05648-0.42894-0.15775-0.49637-0.31574-0.60909 0.92483-0.09031 1.1843-0.15775 1.6128-0.36078-0.08983 0.49588-0.10176 0.74468-0.10176 1.5001-0.02214 3.8923-0.0336 4.3094 0.21496 4.7719" fill="#b3b3b3" stroke-width=".24344"/>
    <path id="path5472" d="m20.809 62.294c-0.02238 0.71084-0.03384 1.2072-0.22591 1.6018-0.23687 0.50781-0.63148 0.65436-0.92482 0.65436-0.67749 0-0.82355-0.5638-0.82355-1.1164 0-1.0602 0.94771-1.1398 1.3759-1.1398zm-3.1024 1.3878c0 0.71084 0.21447 1.4212 0.84644 1.726 0.2819 0.12415 0.5638 0.12415 0.65436 0.12415 1.038 0 1.3874-0.76732 1.6018-1.2411-0.01146 0.49637 0 0.80067 0.03384 1.1958 0.20303-0.01142 0.40606-0.03384 0.74468-0.03384 0.19159 0 0.37222 0.02238 0.5638 0.03384-0.12415-0.19158-0.19158-0.30478-0.22591-0.74468-0.02238-0.42845-0.02238-0.85715-0.02238-1.455l0.01146-2.3012c0-0.85763-0.22591-1.7036-1.9181-1.7036-1.1164 0-1.7705 0.33862-2.0977 0.50782 0.1356 0.24831 0.24831 0.46205 0.34958 0.94771 0.44038-0.38366 1.0156-0.58669 1.6018-0.58669 0.93675 0 0.93675 0.62052 0.93675 1.5001-0.21447-0.01096-0.3951-0.03335-0.69989-0.03335-1.4331 2.16e-4 -2.3806 0.55212-2.3806 2.0641" fill="#b3b3b3" stroke-width=".24344"/>
    <path id="path5474" d="m27.307 64.37c0.01146 0.38366 0.01146 0.78971 0.16919 1.1169-0.24855-0.02239-0.3951-0.05648-0.85715-0.05648-0.27095 0-0.4175 0.02288-0.63197 0.05648 0.0448-0.14655 0.06792-0.20303 0.09032-0.3951 0.03384-0.25902 0.05648-1.1279 0.05648-1.4326v-1.2182c0-0.53021 0-1.2975-0.03434-1.568-0.02238-0.19159-0.07839-0.71035-0.73324-0.71035-0.64292 0-0.85715 0.47349-0.93627 0.85714-0.08983 0.39462-0.08983 0.82355-0.08983 2.4928 0.01096 1.4441 0.01096 1.5789 0.12367 1.974-0.19158-0.02238-0.42845-0.04479-0.76683-0.04479-0.27095 0-0.45134 0.01096-0.67652 0.04479 0.07888-0.18063 0.12415-0.27095 0.14655-0.90243 0.02288-0.62053 0.06792-3.6664-0.03434-4.388-0.05599-0.44038-0.16919-0.54165-0.29286-0.65436 0.91387-0.04528 1.2067-0.19208 1.4891-0.33814v1.1953c0.1351-0.35006 0.41701-1.1283 1.5453-1.1283 1.4102 0 1.4212 1.0266 1.4326 1.7031v3.3962" fill="#b3b3b3" stroke-width=".24344"/>
    <path id="path5476" d="m17.292 57.618-0.93432 0.93383-0.93383-0.93383 0.93383-0.93383 0.93432 0.93383" fill="#a80030" stroke-width=".24344"/>
    <path id="path5480" d="m32.44 60.421c0-0.53474 0.02377-2.2459 0.08318-2.7331 0.03565-0.2852 0.09507-0.41591 0.17825-0.57039-0.2852 0.04753-0.47532 0.08318-0.95065 0.08318-0.20201 0-0.35649-0.01189-0.49909-0.02377-0.13072-0.01189-0.23766-0.03565-0.36838-0.05942 0.19013 0.41591 0.20201 0.89124 0.2139 1.3903 0.02377 0.64169 0.02377 1.3071 0.02377 1.8775l-0.02377 3.6957c-0.01189 0.49909-0.01189 1.0338-0.2139 1.4735 0.2852-0.02377 0.54662-0.05942 0.93877-0.05942 0.28519 0 0.57039 0.02377 0.86747 0.05942-0.15448-0.33273-0.2139-0.51097-0.22578-1.426-0.02377-0.95065-0.02377-1.224-0.02377-2.0914z" fill="#b3b3b3" stroke-width=".061891" style="white-space:pre"/>
    <path id="path5482" d="m37.816 61.081c-0.01119-0.67098-0.02237-1.6886-1.4202-1.6886-1.1183 0-1.3979 0.77163-1.5321 1.1183v-1.1854c-0.27958 0.14538-0.57033 0.29076-1.4762 0.33549 0.12301 0.11183 0.23484 0.21248 0.29076 0.64862 0.10065 0.71571 0.05591 3.7351 0.03355 4.3502-0.02237 0.62625-0.0671 0.71571-0.14538 0.89464 0.22366-0.03355 0.40259-0.04473 0.67098-0.04473 0.33549 0 0.57033 0.02237 0.76044 0.04473-0.11183-0.39141-0.11183-0.5256-0.12301-1.957 0-1.6551 0-2.08 0.08946-2.4715 0.07828-0.38022 0.29076-0.84991 0.92819-0.84991 0.64862 0 0.70453 0.51442 0.7269 0.70453 0.03355 0.26839 0.03355 1.0288 0.03355 1.5544v1.2078c0 0.30194-0.02237 1.163-0.05592 1.4202-0.02237 0.19011-0.04473 0.24603-0.08946 0.39141 0.21248-0.03355 0.35786-0.05591 0.62625-0.05591 0.4585 0 0.60388 0.03355 0.84991 0.05591-0.15656-0.32431-0.15656-0.7269-0.16774-1.1071z" fill="#b3b3b3" stroke-width=".058245" style="white-space:pre"/>
    <path id="path5484" d="m38.671 62.373c0 3.1812 1.692 3.1812 1.9402 3.1812 0.69938 0 1.1506-0.38355 1.3424-1.0491l0.02256 1.004c0.21433-0.01129 0.42865-0.03384 0.77834-0.03384 0.12408 0 0.2256 0 0.31585 0.01129 0.09024 0 0.18048 0.01128 0.28201 0.02256-0.18048-0.36099-0.31585-1.1732-0.31585-2.933 0-1.7147 0-4.6139 0.14664-5.4938-0.40609 0.19178-0.75578 0.31586-1.5228 0.38355 0.30457 0.32715 0.30457 0.49636 0.30457 1.9854-0.21433-0.06769-0.48505-0.14665-0.94754-0.14665-2.0192 0-2.3463 1.7598-2.3463 3.0684zm3.2713-1.3311c-0.01128 0.01128-0.01128 1.8275-0.03384 2.3013-0.02256 0.38355-0.0564 1.2071-0.86858 1.2071-0.83474 0-1.0378-0.95888-1.1055-1.3763-0.07896-0.46252-0.07896-0.84607-0.07896-1.0153 0-0.54148 0.03384-2.0531 1.3085-2.0531 0.38353 0 0.59786 0.11281 0.76706 0.20306z" fill="#b3b3b3" stroke-width=".058753" style="white-space:pre"/>
    <path id="path5486" d="m46.594 63.72c0 0.70453 0.21248 1.4091 0.83873 1.711 0.27958 0.12301 0.55915 0.12301 0.64862 0.12301 1.0288 0 1.3755-0.76045 1.588-1.2301-0.01119 0.49205 0 0.794 0.03355 1.1854 0.2013-0.01119 0.40259-0.03355 0.73808-0.03355 0.19011 0 0.36904 0.02237 0.55915 0.03355-0.12301-0.19011-0.19011-0.30194-0.22366-0.73808-0.02237-0.42496-0.02237-0.84991-0.02237-1.4426l0.01119-2.2813c0-0.84991-0.22366-1.6886-1.9011-1.6886-1.1071 0-1.7557 0.33549-2.08 0.50324 0.1342 0.24603 0.24603 0.4585 0.34667 0.93937 0.43614-0.38022 1.0065-0.58152 1.588-0.58152 0.92819 0 0.92819 0.61507 0.92819 1.4873-0.21248-0.01119-0.39141-0.03355-0.69335-0.03355-1.4202 0-2.3596 0.54797-2.3596 2.0465zm3.0753-1.3755c-0.02237 0.70453-0.03355 1.1966-0.22366 1.588-0.23484 0.50324-0.62625 0.64862-0.91701 0.64862-0.67098 0-0.81636-0.55915-0.81636-1.1071 0-1.0512 0.93937-1.1295 1.3643-1.1295z" fill="#b3b3b3" stroke-width=".058245" style="white-space:pre"/>
    <path id="path5488" transform="matrix(.10817 0 0 .10817 -23.074 44.48)" d="m635.04 151.1c0-6.9269 0.10342-9.2014 0.93049-13.75-3.9287 1.861-6.3066 2.4813-14.784 3.3084 1.4474 1.0339 2.3779 1.6542 2.8948 5.5829 0.72372 5.1693 0.62033 29.775 0.20678 38.977-0.31016 6.7201-0.72371 7.6506-1.7576 9.615 2.3779-0.31016 4.6524-0.51694 7.9608-0.51694 2.9982 0 4.4456 0.20678 6.5134 0.51694-2.2745-4.2389-2.1711-8.0642-1.9644-43.733z" fill="#b3b3b3" stroke-width=".53847" style="white-space:pre"/>
    <path id="path5490" transform="matrix(.10817 0 0 .10817 -23.074 44.48)" d="m637.73 121.46-8.6377 8.6332-8.6333-8.6332 8.6333-8.6333 8.6377 8.6333" fill="#a80030" stroke-width="2.2506"/>
    <g id="g5462" transform="matrix(.42942 0 0 .42942 -25.14 -40.613)">
     <g id="g4928" transform="matrix(2.9105 0 0 2.9105 119.09 153.83)" fill="#d6d6d6" filter="url(#filter3270)">
      <path id="path4738" d="m0-20a20 20 0 0 0 0 40 20 20 0 0 0 0-40zm0 2.5a17.5 17.5 0 0 0 0 35 17.5 17.5 0 0 0 0-35z" fill-rule="evenodd"/>
      <circle id="circle4740" r="3.5"/>
      <g id="g4802">
       <g id="g4770">
        <g id="g4754">
         <g id="g4746">
          <circle id="circle4742" transform="rotate(7.5 -8.75 133.5)" r=".875"/>
          <path id="path4744" d="m0 17.5 0.6-10.5-0.6-5-0.6 5z"/>
         </g>
         <g id="g4752" transform="rotate(15)">
          <circle id="circle4748" transform="rotate(7.5 -8.75 133.5)" r=".875"/>
          <path id="path4750" d="m0 17.5 0.6-10.5-0.6-5-0.6 5z"/>
         </g>
        </g>
        <g id="g4768" transform="rotate(30)">
         <g id="g4760">
          <circle id="circle4756" transform="rotate(7.5 -8.75 133.5)" r=".875"/>
          <path id="path4758" d="m0 17.5 0.6-10.5-0.6-5-0.6 5z"/>
         </g>
         <g id="g4766" transform="rotate(15)">
          <circle id="circle4762" transform="rotate(7.5 -8.75 133.5)" r=".875"/>
          <path id="path4764" d="m0 17.5 0.6-10.5-0.6-5-0.6 5z"/>
         </g>
        </g>
       </g>
       <g id="g4800" transform="rotate(60)">
        <g id="g4784">
         <g id="g4776">
          <circle id="circle4772" transform="rotate(7.5 -8.75 133.5)" r=".875"/>
          <path id="path4774" d="m0 17.5 0.6-10.5-0.6-5-0.6 5z"/>
         </g>
         <g id="g4782" transform="rotate(15)">
          <circle id="circle4778" transform="rotate(7.5 -8.75 133.5)" r=".875"/>
          <path id="path4780" d="m0 17.5 0.6-10.5-0.6-5-0.6 5z"/>
         </g>
        </g>
        <g id="g4798" transform="rotate(30)">
         <g id="g4790">
          <circle id="circle4786" transform="rotate(7.5 -8.75 133.5)" r=".875"/>
          <path id="path4788" d="m0 17.5 0.6-10.5-0.6-5-0.6 5z"/>
         </g>
         <g id="g4796" transform="rotate(15)">
          <circle id="circle4792" transform="rotate(7.5 -8.75 133.5)" r=".875"/>
          <path id="path4794" d="m0 17.5 0.6-10.5-0.6-5-0.6 5z"/>
         </g>
        </g>
       </g>
      </g>
      <g id="g4864" transform="rotate(120)">
       <g id="g4832">
        <g id="g4816">
         <g id="g4808">
          <circle id="circle4804" transform="rotate(7.5 -8.75 133.5)" r=".875"/>
          <path id="path4806" d="m0 17.5 0.6-10.5-0.6-5-0.6 5z"/>
         </g>
         <g id="g4814" transform="rotate(15)">
          <circle id="circle4810" transform="rotate(7.5 -8.75 133.5)" r=".875"/>
          <path id="path4812" d="m0 17.5 0.6-10.5-0.6-5-0.6 5z"/>
         </g>
        </g>
        <g id="g4830" transform="rotate(30)">
         <g id="g4822">
          <circle id="circle4818" transform="rotate(7.5 -8.75 133.5)" r=".875"/>
          <path id="path4820" d="m0 17.5 0.6-10.5-0.6-5-0.6 5z"/>
         </g>
         <g id="g4828" transform="rotate(15)">
          <circle id="circle4824" transform="rotate(7.5 -8.75 133.5)" r=".875"/>
          <path id="path4826" d="m0 17.5 0.6-10.5-0.6-5-0.6 5z"/>
         </g>
        </g>
       </g>
       <g id="g4862" transform="rotate(60)">
        <g id="g4846">
         <g id="g4838">
          <circle id="circle4834" transform="rotate(7.5 -8.75 133.5)" r=".875"/>
          <path id="path4836" d="m0 17.5 0.6-10.5-0.6-5-0.6 5z"/>
         </g>
         <g id="g4844" transform="rotate(15)">
          <circle id="circle4840" transform="rotate(7.5 -8.75 133.5)" r=".875"/>
          <path id="path4842" d="m0 17.5 0.6-10.5-0.6-5-0.6 5z"/>
         </g>
        </g>
        <g id="g4860" transform="rotate(30)">
         <g id="g4852">
          <circle id="circle4848" transform="rotate(7.5 -8.75 133.5)" r=".875"/>
          <path id="path4850" d="m0 17.5 0.6-10.5-0.6-5-0.6 5z"/>
         </g>
         <g id="g4858" transform="rotate(15)">
          <circle id="circle4854" transform="rotate(7.5 -8.75 133.5)" r=".875"/>
          <path id="path4856" d="m0 17.5 0.6-10.5-0.6-5-0.6 5z"/>
         </g>
        </g>
       </g>
      </g>
      <g id="g4926" transform="rotate(240)">
       <g id="g4894">
        <g id="g4878">
         <g id="g4870">
          <circle id="circle4866" transform="rotate(7.5 -8.75 133.5)" r=".875"/>
          <path id="path4868" d="m0 17.5 0.6-10.5-0.6-5-0.6 5z"/>
         </g>
         <g id="g4876" transform="rotate(15)">
          <circle id="circle4872" transform="rotate(7.5 -8.75 133.5)" r=".875"/>
          <path id="path4874" d="m0 17.5 0.6-10.5-0.6-5-0.6 5z"/>
         </g>
        </g>
        <g id="g4892" transform="rotate(30)">
         <g id="g4884">
          <circle id="circle4880" transform="rotate(7.5 -8.75 133.5)" r=".875"/>
          <path id="path4882" d="m0 17.5 0.6-10.5-0.6-5-0.6 5z"/>
         </g>
         <g id="g4890" transform="rotate(15)">
          <circle id="circle4886" transform="rotate(7.5 -8.75 133.5)" r=".875"/>
          <path id="path4888" d="m0 17.5 0.6-10.5-0.6-5-0.6 5z"/>
         </g>
        </g>
       </g>
       <g id="g4924" transform="rotate(60)">
        <g id="g4908">
         <g id="g4900">
          <circle id="circle4896" transform="rotate(7.5 -8.75 133.5)" r=".875"/>
          <path id="path4898" d="m0 17.5 0.6-10.5-0.6-5-0.6 5z"/>
         </g>
         <g id="g4906" transform="rotate(15)">
          <circle id="circle4902" transform="rotate(7.5 -8.75 133.5)" r=".875"/>
          <path id="path4904" d="m0 17.5 0.6-10.5-0.6-5-0.6 5z"/>
         </g>
        </g>
        <g id="g4922" transform="rotate(30)">
         <g id="g4914">
          <circle id="circle4910" transform="rotate(7.5 -8.75 133.5)" r=".875"/>
          <path id="path4912" d="m0 17.5 0.6-10.5-0.6-5-0.6 5z"/>
         </g>
         <g id="g4920" transform="rotate(15)">
          <circle id="circle4916" transform="rotate(7.5 -8.75 133.5)" r=".875"/>
          <path id="path4918" d="m0 17.5 0.6-10.5-0.6-5-0.6 5z"/>
         </g>
        </g>
       </g>
      </g>
     </g>
     <g id="g4978" transform="matrix(1.7315 0 0 1.9132 83.821 -412.44)" fill="url(#linearGradient5676)" stroke-width=".52719">
      <path id="path4930" d="m24.099 297.34c-0.78762 0.01 0.14814 0.40488 1.1767 0.56356 0.28521-0.22246 0.54143-0.446 0.77128-0.66425-0.63948 0.15662-1.2911 0.1602-1.948 0.10063"/>
      <path id="path4932" d="m28.325 296.28c0.47078-0.64791 0.8124-1.3565 0.93313-2.0892-0.10596 0.5219-0.38801 0.97266-0.65583 1.4492-1.4724 0.92733-0.13918-0.5504-0.0011-1.1129-1.5826 1.9944-0.21826 1.1957-0.27625 1.7529"/>
      <path id="path4934" d="m29.887 292.22c0.09594-1.4187-0.27888-0.96951-0.40488-0.42914 0.14655 0.0769 0.26307 1.0006 0.40488 0.42914"/>
      <path id="path4936" d="m21.111 272.83c0.4207 0.0749 0.90888 0.1329 0.83876 0.23354 0.46182-0.10182 0.56568-0.19347-0.83876-0.23354"/>
      <path id="path4938" d="m21.95 273.06-0.29575 0.0618 0.27572-0.0253 0.02003-0.0365"/>
      <path id="path4940" d="m35.061 292.76c0.04744 1.2737-0.37167 1.8926-0.75072 2.987l-0.68166 0.33899c-0.55724 1.0829 0.05535 0.68747-0.34373 1.5484-0.87092 0.77341-2.6391 2.4193-3.2053 2.5701-0.41385-0.01 0.27994-0.48819 0.37062-0.67533-1.1646 0.7992-0.93471 1.1999-2.7161 1.6865l-0.05167-0.11656c-4.3915 2.0666-10.492-2.0281-10.412-7.6142-0.04639 0.35427-0.13338 0.2657-0.23038 0.40805-0.22669-2.8737 1.3275-5.7601 3.9487-6.9405 2.5637-1.2684 5.5693-0.74862 7.4044 0.96422-1.008-1.3212-3.0161-2.7219-5.3942-2.5922-2.3307 0.0379-4.5117 1.5189-5.2392 3.1273-1.1936 0.75125-1.3327 2.8974-1.8526 3.2907-0.70064 5.1454 1.3164 7.3675 4.7289 9.9829 0.53563 0.36165 0.15078 0.41702 0.22247 0.69221-1.1335-0.53036-2.171-1.3317-3.025-2.3128 0.45339 0.66268 0.94209 1.3069 1.5742 1.813-1.0697-0.36113-2.4978-2.5901-2.9138-2.6808 1.8425 3.2992 7.4745 5.7859 10.425 4.5518-1.3654 0.0506-3.0994 0.0279-4.6324-0.5388-0.64581-0.3316-1.5204-1.0175-1.3638-1.1456 4.0256 1.503 8.1831 1.1377 11.666-1.6538 0.88674-0.69063 1.8547-1.8647 2.1346-1.8805-0.42123 0.63369 0.07223 0.30472-0.25147 0.86406 0.88146-1.4239-0.38432-0.57991 0.91204-2.4588l0.47869 0.65899c-0.17925-1.183 1.4682-2.618 1.3006-4.4874 0.378-0.57148 0.42123 0.61576 0.02056 1.9306 0.55619-1.4587 0.14709-1.6933 0.28943-2.8974 0.15341 0.40489 0.35744 0.83456 0.46129 1.2621-0.36271-1.4102 0.37062-2.374 0.55302-3.1937-0.1803-0.0791-0.55935 0.62315-0.64686-1.0417 0.01315-0.72329 0.20191-0.37904 0.27414-0.55723-0.14129-0.0817-0.51401-0.63632-0.74018-1.6997 0.16291-0.25041 0.43862 0.64793 0.66215 0.68429-0.14392-0.84509-0.39118-1.4898-0.40172-2.1388-0.65372-1.3654-0.23144 0.18232-0.76074-0.58624-0.69589-2.1689 0.57675-0.50347 0.66321-1.4883 1.0533 1.5262 1.6538 3.8933 1.9306 4.8734-0.21088-1.1951-0.55092-2.3534-0.96687-3.4737 0.32106 0.1355-0.51612-2.4583 0.41701-0.7407-0.99587-3.6614-4.2587-7.0828-7.261-8.6876 0.3664 0.33582 0.8298 0.75758 0.66426 0.82401-1.4941-0.88833-1.2315-0.95845-1.4456-1.3338-1.2152-0.49503-1.2964 0.0406-2.1003 1e-3 -2.2933-1.2168-2.7351-1.0876-4.8454-1.8489l0.09594 0.44916c-1.5188-0.50611-1.7698 0.19088-3.4109 1e-3 -0.09965-0.0775 0.52614-0.28258 1.0417-0.3569-1.4688 0.19407-1.4002-0.28995-2.8373 0.0532 0.35374-0.24831 0.72911-0.41331 1.1066-0.6242-1.1973 0.0727-2.8595 0.69695-2.3465 0.12872-1.9532 0.87197-5.4227 2.0956-7.3696 3.9212l-0.06115-0.40909c-0.89201 1.0707-3.8901 3.1979-4.129 4.586l-0.23882 0.0554c-0.4634 0.78603-0.76443 1.6765-1.1324 2.4846-0.6068 1.0349-0.8899 0.39855-0.80344 0.56094-1.1941 2.4208-1.7882 4.4548-2.3001 6.1239 0.36482 0.54563 0.00897 3.2854 0.14655 5.478-0.59889 10.831 7.6011 21.345 16.564 23.773 1.3138 0.47078 3.267 0.4539 4.9287 0.50031-1.9601-0.56094-2.2132-0.29681-4.1237-0.96266-1.3776-0.6495-1.6791-1.3902-2.6555-2.2374l0.38643 0.68271c-1.9137-0.67745-1.1129-0.83824-2.6702-1.3312l0.41279-0.53826c-0.62051-0.0474-1.6433-1.0449-1.9227-1.599l-0.67902 0.0269c-0.81504-1.0048-1.25-1.7308-1.2178-2.2933l-0.21931 0.39117c-0.24831-0.42648-3.0002-3.7736-1.5726-2.9944-0.26518-0.24146-0.61787-0.39381-1.0001-1.0892l0.29048-0.3316c-0.68587-0.884-1.2642-2.0169-1.2199-2.3944 0.3664 0.49451 0.6205 0.5873 0.8725 0.67218-1.735-4.304-1.8325-0.23671-3.1458-4.381l0.2773-0.0221c-0.21246-0.32214-0.34267-0.66956-0.51348-1.0117l0.12125-1.2046c-1.2484-1.4424-0.349-6.1392-0.16817-8.7145 0.1239-1.047 1.0423-2.162 1.7397-3.9107l-0.42492-0.0727c0.81293-1.4171 4.6403-5.6931 6.4138-5.4738 0.8588-1.0786-0.1708-4e-3 -0.33898-0.27519 1.8868-1.9522 2.4799-1.3791 3.7531-1.7308 1.3723-0.81451-1.1783 0.31843-0.52772-0.31052 2.3739-0.60573 1.6817-1.3781 4.7779-1.6854 0.32686 0.1855-0.75757 0.2868-1.0296 0.52772 1.977-0.96793 6.2572-0.74702 9.0387 0.53669 3.2248 1.5083 6.8503 5.9646 6.9937 10.157l0.16291 0.0438c-0.08223 1.667 0.25516 3.5949-0.33055 5.3652l0.39592-0.83876"/>
      <path id="path4942" d="m15.5 298.42-0.11124 0.55197c0.51823 0.7038 0.92944 1.4661 1.59 2.0144-0.47553-0.92732-0.82822-1.3106-1.4788-2.5664"/>
      <path id="path4944" d="m16.723 298.37c-0.27414-0.30367-0.43546-0.6685-0.61787-1.0312 0.17397 0.63843 0.53035 1.1872 0.8609 1.7461l-0.24304-0.71486"/>
      <path id="path4946" d="m38.382 293.66-0.11545 0.29101c-0.21193 1.5067-0.67112 2.9976-1.3733 4.3804 0.77603-1.4587 1.2763-3.0546 1.4888-4.6714"/>
      <path id="path4948" d="m21.267 272.45c0.53194-0.19447 1.3085-0.107 1.8747-0.23512-0.73701 0.0618-1.4703 0.0986-2.1942 0.19089l0.31948 0.0442"/>
      <path id="path4950" d="m2.5671 282.4c0.12284 1.1356-0.85405 1.5768 0.21615 0.82719 0.57464-1.2937-0.22353-0.35693-0.21615-0.82719"/>
      <path id="path4952" d="m1.3082 287.65c0.24725-0.75758 0.29154-1.212 0.3859-1.6512-0.68166 0.87198-0.31421 1.0581-0.3859 1.6512"/>
      <path id="path4954" d="m24.099 297.34c-0.78762 0.01 0.14814 0.40488 1.1767 0.56356 0.28521-0.22246 0.54143-0.446 0.77128-0.66425-0.63948 0.15662-1.2911 0.1602-1.948 0.10063"/>
      <path id="path4956" d="m28.325 296.28c0.47078-0.64791 0.8124-1.3565 0.93313-2.0892-0.10596 0.5219-0.38801 0.97266-0.65583 1.4492-1.4724 0.92733-0.13918-0.5504-0.0011-1.1129-1.5826 1.9944-0.21826 1.1957-0.27625 1.7529"/>
      <path id="path4958" d="m29.887 292.22c0.09594-1.4187-0.27888-0.96951-0.40488-0.42914 0.14655 0.0769 0.26307 1.0006 0.40488 0.42914"/>
      <path id="path4960" d="m21.111 272.83c0.4207 0.0749 0.90888 0.1329 0.83876 0.23354 0.46182-0.10182 0.56568-0.19347-0.83876-0.23354"/>
      <path id="path4962" d="m21.95 273.06-0.29575 0.0618 0.27572-0.0253 0.02003-0.0365"/>
      <path id="path4964" d="m35.061 292.76c0.04744 1.2737-0.37167 1.8926-0.75072 2.987l-0.68166 0.33899c-0.55724 1.0829 0.05535 0.68747-0.34373 1.5484-0.87092 0.77341-2.6391 2.4193-3.2053 2.5701-0.41385-0.01 0.27994-0.48819 0.37062-0.67533-1.1646 0.7992-0.93471 1.1999-2.7161 1.6865l-0.05167-0.11656c-4.3915 2.0666-10.492-2.0281-10.412-7.6142-0.04639 0.35427-0.13338 0.2657-0.23038 0.40805-0.22669-2.8737 1.3275-5.7601 3.9487-6.9405 2.5637-1.2684 5.5693-0.74862 7.4044 0.96422-1.008-1.3212-3.0161-2.7219-5.3942-2.5922-2.3307 0.0379-4.5117 1.5189-5.2392 3.1273-1.1936 0.75125-1.3327 2.8974-1.8526 3.2907-0.70064 5.1454 1.3164 7.3675 4.7289 9.9829 0.53563 0.36165 0.15078 0.41702 0.22247 0.69221-1.1335-0.53036-2.171-1.3317-3.025-2.3128 0.45339 0.66268 0.94209 1.3069 1.5742 1.813-1.0697-0.36113-2.4978-2.5901-2.9138-2.6808 1.8425 3.2992 7.4745 5.7859 10.425 4.5518-1.3654 0.0506-3.0994 0.0279-4.6324-0.5388-0.64581-0.3316-1.5204-1.0175-1.3638-1.1456 4.0256 1.503 8.1831 1.1377 11.666-1.6538 0.88674-0.69063 1.8547-1.8647 2.1346-1.8805-0.42123 0.63369 0.07223 0.30472-0.25147 0.86406 0.88146-1.4239-0.38432-0.57991 0.91204-2.4588l0.47869 0.65899c-0.17925-1.183 1.4682-2.618 1.3006-4.4874 0.378-0.57148 0.42123 0.61576 0.02056 1.9306 0.55619-1.4587 0.14709-1.6933 0.28943-2.8974 0.15341 0.40489 0.35744 0.83456 0.46129 1.2621-0.36271-1.4102 0.37062-2.374 0.55302-3.1937-0.1803-0.0791-0.55935 0.62315-0.64686-1.0417 0.01315-0.72329 0.20191-0.37904 0.27414-0.55723-0.14129-0.0817-0.51401-0.63632-0.74018-1.6997 0.16291-0.25041 0.43862 0.64793 0.66215 0.68429-0.14392-0.84509-0.39118-1.4898-0.40172-2.1388-0.65372-1.3654-0.23144 0.18232-0.76074-0.58624-0.69589-2.1689 0.57675-0.50347 0.66321-1.4883 1.0533 1.5262 1.6538 3.8933 1.9306 4.8734-0.21088-1.1951-0.55092-2.3534-0.96687-3.4737 0.32106 0.1355-0.51612-2.4583 0.41701-0.7407-0.99587-3.6614-4.2587-7.0828-7.261-8.6876 0.3664 0.33582 0.8298 0.75758 0.66426 0.82401-1.4941-0.88833-1.2315-0.95845-1.4456-1.3338-1.2152-0.49503-1.2964 0.0406-2.1003 1e-3 -2.2933-1.2168-2.7351-1.0876-4.8454-1.8489l0.09594 0.44916c-1.5188-0.50611-1.7698 0.19088-3.4109 1e-3 -0.09965-0.0775 0.52614-0.28258 1.0417-0.3569-1.4688 0.19407-1.4002-0.28995-2.8373 0.0532 0.35374-0.24831 0.72911-0.41331 1.1066-0.6242-1.1973 0.0727-2.8595 0.69695-2.3465 0.12872-1.9532 0.87197-5.4227 2.0956-7.3696 3.9212l-0.06115-0.40909c-0.89201 1.0707-3.8901 3.1979-4.129 4.586l-0.23882 0.0554c-0.4634 0.78603-0.76443 1.6765-1.1324 2.4846-0.6068 1.0349-0.8899 0.39855-0.80344 0.56094-1.1941 2.4208-1.7882 4.4548-2.3001 6.1239 0.36482 0.54563 0.00897 3.2854 0.14655 5.478-0.59889 10.831 7.6011 21.345 16.564 23.773 1.3138 0.47078 3.267 0.4539 4.9287 0.50031-1.9601-0.56094-2.2132-0.29681-4.1237-0.96266-1.3776-0.6495-1.6791-1.3902-2.6555-2.2374l0.38643 0.68271c-1.9137-0.67745-1.1129-0.83824-2.6702-1.3312l0.41279-0.53826c-0.62051-0.0474-1.6433-1.0449-1.9227-1.599l-0.67902 0.0269c-0.81504-1.0048-1.25-1.7308-1.2178-2.2933l-0.21931 0.39117c-0.24831-0.42648-3.0002-3.7736-1.5726-2.9944-0.26518-0.24146-0.61787-0.39381-1.0001-1.0892l0.29048-0.3316c-0.68587-0.884-1.2642-2.0169-1.2199-2.3944 0.3664 0.49451 0.6205 0.5873 0.8725 0.67218-1.735-4.304-1.8325-0.23671-3.1458-4.381l0.2773-0.0221c-0.21246-0.32214-0.34267-0.66956-0.51348-1.0117l0.12125-1.2046c-1.2484-1.4424-0.349-6.1392-0.16817-8.7145 0.1239-1.047 1.0423-2.162 1.7397-3.9107l-0.42492-0.0727c0.81293-1.4171 4.6403-5.6931 6.4138-5.4738 0.8588-1.0786-0.1708-4e-3 -0.33898-0.27519 1.8868-1.9522 2.4799-1.3791 3.7531-1.7308 1.3723-0.81451-1.1783 0.31843-0.52772-0.31052 2.3739-0.60573 1.6817-1.3781 4.7779-1.6854 0.32686 0.1855-0.75757 0.2868-1.0296 0.52772 1.977-0.96793 6.2572-0.74702 9.0387 0.53669 3.2248 1.5083 6.8503 5.9646 6.9937 10.157l0.16291 0.0438c-0.08223 1.667 0.25516 3.5949-0.33055 5.3652l0.39592-0.83876"/>
      <path id="path4966" d="m15.5 298.42-0.11124 0.55197c0.51823 0.7038 0.92944 1.4661 1.59 2.0144-0.47553-0.92732-0.82822-1.3106-1.4788-2.5664"/>
      <path id="path4968" d="m16.723 298.37c-0.27414-0.30367-0.43546-0.6685-0.61787-1.0312 0.17397 0.63843 0.53035 1.1872 0.8609 1.7461l-0.24304-0.71486"/>
      <path id="path4970" d="m38.382 293.66-0.11545 0.29101c-0.21193 1.5067-0.67112 2.9976-1.3733 4.3804 0.77603-1.4587 1.2763-3.0546 1.4888-4.6714"/>
      <path id="path4972" d="m21.267 272.45c0.53194-0.19447 1.3085-0.107 1.8747-0.23512-0.73701 0.0618-1.4703 0.0986-2.1942 0.19089l0.31948 0.0442"/>
      <path id="path4974" d="m2.5671 282.4c0.12284 1.1356-0.85405 1.5768 0.21615 0.82719 0.57464-1.2937-0.22353-0.35693-0.21615-0.82719"/>
      <path id="path4976" d="m1.3082 287.65c0.24725-0.75758 0.29154-1.212 0.3859-1.6512-0.68166 0.87198-0.31421 1.0581-0.3859 1.6512"/>
     </g>
     <g id="g5170" transform="matrix(2.9105 0 0 2.9105 119.09 153.83)" fill="#b3b3b3" filter="url(#filter3270)">
      <path id="path4980" d="m0-20a20 20 0 0 0 0 40 20 20 0 0 0 0-40zm0 2.5a17.5 17.5 0 0 0 0 35 17.5 17.5 0 0 0 0-35z" fill-rule="evenodd"/>
      <circle id="circle4982" r="3.5"/>
      <g id="g5044">
       <g id="g5012">
        <g id="g4996">
         <g id="g4988">
          <circle id="circle4984" transform="rotate(7.5 -8.75 133.5)" r=".875"/>
          <path id="path4986" d="m0 17.5 0.6-10.5-0.6-5-0.6 5z"/>
         </g>
         <g id="g4994" transform="rotate(15)">
          <circle id="circle4990" transform="rotate(7.5 -8.75 133.5)" r=".875"/>
          <path id="path4992" d="m0 17.5 0.6-10.5-0.6-5-0.6 5z"/>
         </g>
        </g>
        <g id="g5010" transform="rotate(30)">
         <g id="g5002">
          <circle id="circle4998" transform="rotate(7.5 -8.75 133.5)" r=".875"/>
          <path id="path5000" d="m0 17.5 0.6-10.5-0.6-5-0.6 5z"/>
         </g>
         <g id="g5008" transform="rotate(15)">
          <circle id="circle5004" transform="rotate(7.5 -8.75 133.5)" r=".875"/>
          <path id="path5006" d="m0 17.5 0.6-10.5-0.6-5-0.6 5z"/>
         </g>
        </g>
       </g>
       <g id="g5042" transform="rotate(60)">
        <g id="g5026">
         <g id="g5018">
          <circle id="circle5014" transform="rotate(7.5 -8.75 133.5)" r=".875"/>
          <path id="path5016" d="m0 17.5 0.6-10.5-0.6-5-0.6 5z"/>
         </g>
         <g id="g5024" transform="rotate(15)">
          <circle id="circle5020" transform="rotate(7.5 -8.75 133.5)" r=".875"/>
          <path id="path5022" d="m0 17.5 0.6-10.5-0.6-5-0.6 5z"/>
         </g>
        </g>
        <g id="g5040" transform="rotate(30)">
         <g id="g5032">
          <circle id="circle5028" transform="rotate(7.5 -8.75 133.5)" r=".875"/>
          <path id="path5030" d="m0 17.5 0.6-10.5-0.6-5-0.6 5z"/>
         </g>
         <g id="g5038" transform="rotate(15)">
          <circle id="circle5034" transform="rotate(7.5 -8.75 133.5)" r=".875"/>
          <path id="path5036" d="m0 17.5 0.6-10.5-0.6-5-0.6 5z"/>
         </g>
        </g>
       </g>
      </g>
      <g id="g5106" transform="rotate(120)">
       <g id="g5074">
        <g id="g5058">
         <g id="g5050">
          <circle id="circle5046" transform="rotate(7.5 -8.75 133.5)" r=".875"/>
          <path id="path5048" d="m0 17.5 0.6-10.5-0.6-5-0.6 5z"/>
         </g>
         <g id="g5056" transform="rotate(15)">
          <circle id="circle5052" transform="rotate(7.5 -8.75 133.5)" r=".875"/>
          <path id="path5054" d="m0 17.5 0.6-10.5-0.6-5-0.6 5z"/>
         </g>
        </g>
        <g id="g5072" transform="rotate(30)">
         <g id="g5064">
          <circle id="circle5060" transform="rotate(7.5 -8.75 133.5)" r=".875"/>
          <path id="path5062" d="m0 17.5 0.6-10.5-0.6-5-0.6 5z"/>
         </g>
         <g id="g5070" transform="rotate(15)">
          <circle id="circle5066" transform="rotate(7.5 -8.75 133.5)" r=".875"/>
          <path id="path5068" d="m0 17.5 0.6-10.5-0.6-5-0.6 5z"/>
         </g>
        </g>
       </g>
       <g id="g5104" transform="rotate(60)">
        <g id="g5088">
         <g id="g5080">
          <circle id="circle5076" transform="rotate(7.5 -8.75 133.5)" r=".875"/>
          <path id="path5078" d="m0 17.5 0.6-10.5-0.6-5-0.6 5z"/>
         </g>
         <g id="g5086" transform="rotate(15)">
          <circle id="circle5082" transform="rotate(7.5 -8.75 133.5)" r=".875"/>
          <path id="path5084" d="m0 17.5 0.6-10.5-0.6-5-0.6 5z"/>
         </g>
        </g>
        <g id="g5102" transform="rotate(30)">
         <g id="g5094">
          <circle id="circle5090" transform="rotate(7.5 -8.75 133.5)" r=".875"/>
          <path id="path5092" d="m0 17.5 0.6-10.5-0.6-5-0.6 5z"/>
         </g>
         <g id="g5100" transform="rotate(15)">
          <circle id="circle5096" transform="rotate(7.5 -8.75 133.5)" r=".875"/>
          <path id="path5098" d="m0 17.5 0.6-10.5-0.6-5-0.6 5z"/>
         </g>
        </g>
       </g>
      </g>
      <g id="g5168" transform="rotate(240)">
       <g id="g5136">
        <g id="g5120">
         <g id="g5112">
          <circle id="circle5108" transform="rotate(7.5 -8.75 133.5)" r=".875"/>
          <path id="path5110" d="m0 17.5 0.6-10.5-0.6-5-0.6 5z"/>
         </g>
         <g id="g5118" transform="rotate(15)">
          <circle id="circle5114" transform="rotate(7.5 -8.75 133.5)" r=".875"/>
          <path id="path5116" d="m0 17.5 0.6-10.5-0.6-5-0.6 5z"/>
         </g>
        </g>
        <g id="g5134" transform="rotate(30)">
         <g id="g5126">
          <circle id="circle5122" transform="rotate(7.5 -8.75 133.5)" r=".875"/>
          <path id="path5124" d="m0 17.5 0.6-10.5-0.6-5-0.6 5z"/>
         </g>
         <g id="g5132" transform="rotate(15)">
          <circle id="circle5128" transform="rotate(7.5 -8.75 133.5)" r=".875"/>
          <path id="path5130" d="m0 17.5 0.6-10.5-0.6-5-0.6 5z"/>
         </g>
        </g>
       </g>
       <g id="g5166" transform="rotate(60)">
        <g id="g5150">
         <g id="g5142">
          <circle id="circle5138" transform="rotate(7.5 -8.75 133.5)" r=".875"/>
          <path id="path5140" d="m0 17.5 0.6-10.5-0.6-5-0.6 5z"/>
         </g>
         <g id="g5148" transform="rotate(15)">
          <circle id="circle5144" transform="rotate(7.5 -8.75 133.5)" r=".875"/>
          <path id="path5146" d="m0 17.5 0.6-10.5-0.6-5-0.6 5z"/>
         </g>
        </g>
        <g id="g5164" transform="rotate(30)">
         <g id="g5156">
          <circle id="circle5152" transform="rotate(7.5 -8.75 133.5)" r=".875"/>
          <path id="path5154" d="m0 17.5 0.6-10.5-0.6-5-0.6 5z"/>
         </g>
         <g id="g5162" transform="rotate(15)">
          <circle id="circle5158" transform="rotate(7.5 -8.75 133.5)" r=".875"/>
          <path id="path5160" d="m0 17.5 0.6-10.5-0.6-5-0.6 5z"/>
         </g>
        </g>
       </g>
      </g>
     </g>
     <g id="g5220" transform="matrix(1.7315 0 0 1.9132 83.821 -412.44)" fill="url(#linearGradient5676)" stroke-width=".52719">
      <path id="path5172" d="m24.099 297.34c-0.78762 0.01 0.14814 0.40488 1.1767 0.56356 0.28521-0.22246 0.54143-0.446 0.77128-0.66425-0.63948 0.15662-1.2911 0.1602-1.948 0.10063"/>
      <path id="path5174" d="m28.325 296.28c0.47078-0.64791 0.8124-1.3565 0.93313-2.0892-0.10596 0.5219-0.38801 0.97266-0.65583 1.4492-1.4724 0.92733-0.13918-0.5504-0.0011-1.1129-1.5826 1.9944-0.21826 1.1957-0.27625 1.7529"/>
      <path id="path5176" d="m29.887 292.22c0.09594-1.4187-0.27888-0.96951-0.40488-0.42914 0.14655 0.0769 0.26307 1.0006 0.40488 0.42914"/>
      <path id="path5178" d="m21.111 272.83c0.4207 0.0749 0.90888 0.1329 0.83876 0.23354 0.46182-0.10182 0.56568-0.19347-0.83876-0.23354"/>
      <path id="path5180" d="m21.95 273.06-0.29575 0.0618 0.27572-0.0253 0.02003-0.0365"/>
      <path id="path5182" d="m35.061 292.76c0.04744 1.2737-0.37167 1.8926-0.75072 2.987l-0.68166 0.33899c-0.55724 1.0829 0.05535 0.68747-0.34373 1.5484-0.87092 0.77341-2.6391 2.4193-3.2053 2.5701-0.41385-0.01 0.27994-0.48819 0.37062-0.67533-1.1646 0.7992-0.93471 1.1999-2.7161 1.6865l-0.05167-0.11656c-4.3915 2.0666-10.492-2.0281-10.412-7.6142-0.04639 0.35427-0.13338 0.2657-0.23038 0.40805-0.22669-2.8737 1.3275-5.7601 3.9487-6.9405 2.5637-1.2684 5.5693-0.74862 7.4044 0.96422-1.008-1.3212-3.0161-2.7219-5.3942-2.5922-2.3307 0.0379-4.5117 1.5189-5.2392 3.1273-1.1936 0.75125-1.3327 2.8974-1.8526 3.2907-0.70064 5.1454 1.3164 7.3675 4.7289 9.9829 0.53563 0.36165 0.15078 0.41702 0.22247 0.69221-1.1335-0.53036-2.171-1.3317-3.025-2.3128 0.45339 0.66268 0.94209 1.3069 1.5742 1.813-1.0697-0.36113-2.4978-2.5901-2.9138-2.6808 1.8425 3.2992 7.4745 5.7859 10.425 4.5518-1.3654 0.0506-3.0994 0.0279-4.6324-0.5388-0.64581-0.3316-1.5204-1.0175-1.3638-1.1456 4.0256 1.503 8.1831 1.1377 11.666-1.6538 0.88674-0.69063 1.8547-1.8647 2.1346-1.8805-0.42123 0.63369 0.07223 0.30472-0.25147 0.86406 0.88146-1.4239-0.38432-0.57991 0.91204-2.4588l0.47869 0.65899c-0.17925-1.183 1.4682-2.618 1.3006-4.4874 0.378-0.57148 0.42123 0.61576 0.02056 1.9306 0.55619-1.4587 0.14709-1.6933 0.28943-2.8974 0.15341 0.40489 0.35744 0.83456 0.46129 1.2621-0.36271-1.4102 0.37062-2.374 0.55302-3.1937-0.1803-0.0791-0.55935 0.62315-0.64686-1.0417 0.01315-0.72329 0.20191-0.37904 0.27414-0.55723-0.14129-0.0817-0.51401-0.63632-0.74018-1.6997 0.16291-0.25041 0.43862 0.64793 0.66215 0.68429-0.14392-0.84509-0.39118-1.4898-0.40172-2.1388-0.65372-1.3654-0.23144 0.18232-0.76074-0.58624-0.69589-2.1689 0.57675-0.50347 0.66321-1.4883 1.0533 1.5262 1.6538 3.8933 1.9306 4.8734-0.21088-1.1951-0.55092-2.3534-0.96687-3.4737 0.32106 0.1355-0.51612-2.4583 0.41701-0.7407-0.99587-3.6614-4.2587-7.0828-7.261-8.6876 0.3664 0.33582 0.8298 0.75758 0.66426 0.82401-1.4941-0.88833-1.2315-0.95845-1.4456-1.3338-1.2152-0.49503-1.2964 0.0406-2.1003 1e-3 -2.2933-1.2168-2.7351-1.0876-4.8454-1.8489l0.09594 0.44916c-1.5188-0.50611-1.7698 0.19088-3.4109 1e-3 -0.09965-0.0775 0.52614-0.28258 1.0417-0.3569-1.4688 0.19407-1.4002-0.28995-2.8373 0.0532 0.35374-0.24831 0.72911-0.41331 1.1066-0.6242-1.1973 0.0727-2.8595 0.69695-2.3465 0.12872-1.9532 0.87197-5.4227 2.0956-7.3696 3.9212l-0.06115-0.40909c-0.89201 1.0707-3.8901 3.1979-4.129 4.586l-0.23882 0.0554c-0.4634 0.78603-0.76443 1.6765-1.1324 2.4846-0.6068 1.0349-0.8899 0.39855-0.80344 0.56094-1.1941 2.4208-1.7882 4.4548-2.3001 6.1239 0.36482 0.54563 0.00897 3.2854 0.14655 5.478-0.59889 10.831 7.6011 21.345 16.564 23.773 1.3138 0.47078 3.267 0.4539 4.9287 0.50031-1.9601-0.56094-2.2132-0.29681-4.1237-0.96266-1.3776-0.6495-1.6791-1.3902-2.6555-2.2374l0.38643 0.68271c-1.9137-0.67745-1.1129-0.83824-2.6702-1.3312l0.41279-0.53826c-0.62051-0.0474-1.6433-1.0449-1.9227-1.599l-0.67902 0.0269c-0.81504-1.0048-1.25-1.7308-1.2178-2.2933l-0.21931 0.39117c-0.24831-0.42648-3.0002-3.7736-1.5726-2.9944-0.26518-0.24146-0.61787-0.39381-1.0001-1.0892l0.29048-0.3316c-0.68587-0.884-1.2642-2.0169-1.2199-2.3944 0.3664 0.49451 0.6205 0.5873 0.8725 0.67218-1.735-4.304-1.8325-0.23671-3.1458-4.381l0.2773-0.0221c-0.21246-0.32214-0.34267-0.66956-0.51348-1.0117l0.12125-1.2046c-1.2484-1.4424-0.349-6.1392-0.16817-8.7145 0.1239-1.047 1.0423-2.162 1.7397-3.9107l-0.42492-0.0727c0.81293-1.4171 4.6403-5.6931 6.4138-5.4738 0.8588-1.0786-0.1708-4e-3 -0.33898-0.27519 1.8868-1.9522 2.4799-1.3791 3.7531-1.7308 1.3723-0.81451-1.1783 0.31843-0.52772-0.31052 2.3739-0.60573 1.6817-1.3781 4.7779-1.6854 0.32686 0.1855-0.75757 0.2868-1.0296 0.52772 1.977-0.96793 6.2572-0.74702 9.0387 0.53669 3.2248 1.5083 6.8503 5.9646 6.9937 10.157l0.16291 0.0438c-0.08223 1.667 0.25516 3.5949-0.33055 5.3652l0.39592-0.83876"/>
      <path id="path5184" d="m15.5 298.42-0.11124 0.55197c0.51823 0.7038 0.92944 1.4661 1.59 2.0144-0.47553-0.92732-0.82822-1.3106-1.4788-2.5664"/>
      <path id="path5186" d="m16.723 298.37c-0.27414-0.30367-0.43546-0.6685-0.61787-1.0312 0.17397 0.63843 0.53035 1.1872 0.8609 1.7461l-0.24304-0.71486"/>
      <path id="path5188" d="m38.382 293.66-0.11545 0.29101c-0.21193 1.5067-0.67112 2.9976-1.3733 4.3804 0.77603-1.4587 1.2763-3.0546 1.4888-4.6714"/>
      <path id="path5190" d="m21.267 272.45c0.53194-0.19447 1.3085-0.107 1.8747-0.23512-0.73701 0.0618-1.4703 0.0986-2.1942 0.19089l0.31948 0.0442"/>
      <path id="path5192" d="m2.5671 282.4c0.12284 1.1356-0.85405 1.5768 0.21615 0.82719 0.57464-1.2937-0.22353-0.35693-0.21615-0.82719"/>
      <path id="path5194" d="m1.3082 287.65c0.24725-0.75758 0.29154-1.212 0.3859-1.6512-0.68166 0.87198-0.31421 1.0581-0.3859 1.6512"/>
      <path id="path5196" d="m24.099 297.34c-0.78762 0.01 0.14814 0.40488 1.1767 0.56356 0.28521-0.22246 0.54143-0.446 0.77128-0.66425-0.63948 0.15662-1.2911 0.1602-1.948 0.10063"/>
      <path id="path5198" d="m28.325 296.28c0.47078-0.64791 0.8124-1.3565 0.93313-2.0892-0.10596 0.5219-0.38801 0.97266-0.65583 1.4492-1.4724 0.92733-0.13918-0.5504-0.0011-1.1129-1.5826 1.9944-0.21826 1.1957-0.27625 1.7529"/>
      <path id="path5200" d="m29.887 292.22c0.09594-1.4187-0.27888-0.96951-0.40488-0.42914 0.14655 0.0769 0.26307 1.0006 0.40488 0.42914"/>
      <path id="path5202" d="m21.111 272.83c0.4207 0.0749 0.90888 0.1329 0.83876 0.23354 0.46182-0.10182 0.56568-0.19347-0.83876-0.23354"/>
      <path id="path5204" d="m21.95 273.06-0.29575 0.0618 0.27572-0.0253 0.02003-0.0365"/>
      <path id="path5206" d="m35.061 292.76c0.04744 1.2737-0.37167 1.8926-0.75072 2.987l-0.68166 0.33899c-0.55724 1.0829 0.05535 0.68747-0.34373 1.5484-0.87092 0.77341-2.6391 2.4193-3.2053 2.5701-0.41385-0.01 0.27994-0.48819 0.37062-0.67533-1.1646 0.7992-0.93471 1.1999-2.7161 1.6865l-0.05167-0.11656c-4.3915 2.0666-10.492-2.0281-10.412-7.6142-0.04639 0.35427-0.13338 0.2657-0.23038 0.40805-0.22669-2.8737 1.3275-5.7601 3.9487-6.9405 2.5637-1.2684 5.5693-0.74862 7.4044 0.96422-1.008-1.3212-3.0161-2.7219-5.3942-2.5922-2.3307 0.0379-4.5117 1.5189-5.2392 3.1273-1.1936 0.75125-1.3327 2.8974-1.8526 3.2907-0.70064 5.1454 1.3164 7.3675 4.7289 9.9829 0.53563 0.36165 0.15078 0.41702 0.22247 0.69221-1.1335-0.53036-2.171-1.3317-3.025-2.3128 0.45339 0.66268 0.94209 1.3069 1.5742 1.813-1.0697-0.36113-2.4978-2.5901-2.9138-2.6808 1.8425 3.2992 7.4745 5.7859 10.425 4.5518-1.3654 0.0506-3.0994 0.0279-4.6324-0.5388-0.64581-0.3316-1.5204-1.0175-1.3638-1.1456 4.0256 1.503 8.1831 1.1377 11.666-1.6538 0.88674-0.69063 1.8547-1.8647 2.1346-1.8805-0.42123 0.63369 0.07223 0.30472-0.25147 0.86406 0.88146-1.4239-0.38432-0.57991 0.91204-2.4588l0.47869 0.65899c-0.17925-1.183 1.4682-2.618 1.3006-4.4874 0.378-0.57148 0.42123 0.61576 0.02056 1.9306 0.55619-1.4587 0.14709-1.6933 0.28943-2.8974 0.15341 0.40489 0.35744 0.83456 0.46129 1.2621-0.36271-1.4102 0.37062-2.374 0.55302-3.1937-0.1803-0.0791-0.55935 0.62315-0.64686-1.0417 0.01315-0.72329 0.20191-0.37904 0.27414-0.55723-0.14129-0.0817-0.51401-0.63632-0.74018-1.6997 0.16291-0.25041 0.43862 0.64793 0.66215 0.68429-0.14392-0.84509-0.39118-1.4898-0.40172-2.1388-0.65372-1.3654-0.23144 0.18232-0.76074-0.58624-0.69589-2.1689 0.57675-0.50347 0.66321-1.4883 1.0533 1.5262 1.6538 3.8933 1.9306 4.8734-0.21088-1.1951-0.55092-2.3534-0.96687-3.4737 0.32106 0.1355-0.51612-2.4583 0.41701-0.7407-0.99587-3.6614-4.2587-7.0828-7.261-8.6876 0.3664 0.33582 0.8298 0.75758 0.66426 0.82401-1.4941-0.88833-1.2315-0.95845-1.4456-1.3338-1.2152-0.49503-1.2964 0.0406-2.1003 1e-3 -2.2933-1.2168-2.7351-1.0876-4.8454-1.8489l0.09594 0.44916c-1.5188-0.50611-1.7698 0.19088-3.4109 1e-3 -0.09965-0.0775 0.52614-0.28258 1.0417-0.3569-1.4688 0.19407-1.4002-0.28995-2.8373 0.0532 0.35374-0.24831 0.72911-0.41331 1.1066-0.6242-1.1973 0.0727-2.8595 0.69695-2.3465 0.12872-1.9532 0.87197-5.4227 2.0956-7.3696 3.9212l-0.06115-0.40909c-0.89201 1.0707-3.8901 3.1979-4.129 4.586l-0.23882 0.0554c-0.4634 0.78603-0.76443 1.6765-1.1324 2.4846-0.6068 1.0349-0.8899 0.39855-0.80344 0.56094-1.1941 2.4208-1.7882 4.4548-2.3001 6.1239 0.36482 0.54563 0.00897 3.2854 0.14655 5.478-0.59889 10.831 7.6011 21.345 16.564 23.773 1.3138 0.47078 3.267 0.4539 4.9287 0.50031-1.9601-0.56094-2.2132-0.29681-4.1237-0.96266-1.3776-0.6495-1.6791-1.3902-2.6555-2.2374l0.38643 0.68271c-1.9137-0.67745-1.1129-0.83824-2.6702-1.3312l0.41279-0.53826c-0.62051-0.0474-1.6433-1.0449-1.9227-1.599l-0.67902 0.0269c-0.81504-1.0048-1.25-1.7308-1.2178-2.2933l-0.21931 0.39117c-0.24831-0.42648-3.0002-3.7736-1.5726-2.9944-0.26518-0.24146-0.61787-0.39381-1.0001-1.0892l0.29048-0.3316c-0.68587-0.884-1.2642-2.0169-1.2199-2.3944 0.3664 0.49451 0.6205 0.5873 0.8725 0.67218-1.735-4.304-1.8325-0.23671-3.1458-4.381l0.2773-0.0221c-0.21246-0.32214-0.34267-0.66956-0.51348-1.0117l0.12125-1.2046c-1.2484-1.4424-0.349-6.1392-0.16817-8.7145 0.1239-1.047 1.0423-2.162 1.7397-3.9107l-0.42492-0.0727c0.81293-1.4171 4.6403-5.6931 6.4138-5.4738 0.8588-1.0786-0.1708-4e-3 -0.33898-0.27519 1.8868-1.9522 2.4799-1.3791 3.7531-1.7308 1.3723-0.81451-1.1783 0.31843-0.52772-0.31052 2.3739-0.60573 1.6817-1.3781 4.7779-1.6854 0.32686 0.1855-0.75757 0.2868-1.0296 0.52772 1.977-0.96793 6.2572-0.74702 9.0387 0.53669 3.2248 1.5083 6.8503 5.9646 6.9937 10.157l0.16291 0.0438c-0.08223 1.667 0.25516 3.5949-0.33055 5.3652l0.39592-0.83876"/>
      <path id="path5208" d="m15.5 298.42-0.11124 0.55197c0.51823 0.7038 0.92944 1.4661 1.59 2.0144-0.47553-0.92732-0.82822-1.3106-1.4788-2.5664"/>
      <path id="path5210" d="m16.723 298.37c-0.27414-0.30367-0.43546-0.6685-0.61787-1.0312 0.17397 0.63843 0.53035 1.1872 0.8609 1.7461l-0.24304-0.71486"/>
      <path id="path5212" d="m38.382 293.66-0.11545 0.29101c-0.21193 1.5067-0.67112 2.9976-1.3733 4.3804 0.77603-1.4587 1.2763-3.0546 1.4888-4.6714"/>
      <path id="path5214" d="m21.267 272.45c0.53194-0.19447 1.3085-0.107 1.8747-0.23512-0.73701 0.0618-1.4703 0.0986-2.1942 0.19089l0.31948 0.0442"/>
      <path id="path5216" d="m2.5671 282.4c0.12284 1.1356-0.85405 1.5768 0.21615 0.82719 0.57464-1.2937-0.22353-0.35693-0.21615-0.82719"/>
      <path id="path5218" d="m1.3082 287.65c0.24725-0.75758 0.29154-1.212 0.3859-1.6512-0.68166 0.87198-0.31421 1.0581-0.3859 1.6512"/>
     </g>
     <g id="g5460" transform="matrix(1.7315 0 0 1.9132 83.821 -412.44)" fill="#a80030" stroke-width=".52719">
      <path id="path5414" d="m24.099 297.34c-0.78762 0.01 0.14814 0.40488 1.1767 0.56356 0.28521-0.22246 0.54143-0.446 0.77128-0.66425-0.63948 0.15662-1.2911 0.1602-1.948 0.10063"/>
      <path id="path5416" d="m28.325 296.28c0.47078-0.64791 0.8124-1.3565 0.93313-2.0892-0.10596 0.5219-0.38801 0.97266-0.65583 1.4492-1.4724 0.92733-0.13918-0.5504-0.0011-1.1129-1.5826 1.9944-0.21826 1.1957-0.27625 1.7529"/>
      <path id="path5418" d="m29.887 292.22c0.09594-1.4187-0.27888-0.96951-0.40488-0.42914 0.14655 0.0769 0.26307 1.0006 0.40488 0.42914"/>
      <path id="path5420" d="m21.111 272.83c0.4207 0.0749 0.90888 0.1329 0.83876 0.23354 0.46182-0.10182 0.56568-0.19347-0.83876-0.23354"/>
      <path id="path5422" d="m21.95 273.06-0.29575 0.0618 0.27572-0.0253 0.02003-0.0365"/>
      <path id="path5424" d="m35.061 292.76c0.04744 1.2737-0.37167 1.8926-0.75072 2.987l-0.68166 0.33899c-0.55724 1.0829 0.05535 0.68747-0.34373 1.5484-0.87092 0.77341-2.6391 2.4193-3.2053 2.5701-0.41385-0.01 0.27994-0.48819 0.37062-0.67533-1.1646 0.7992-0.93471 1.1999-2.7161 1.6865l-0.05167-0.11656c-4.3915 2.0666-10.492-2.0281-10.412-7.6142-0.04639 0.35427-0.13338 0.2657-0.23038 0.40805-0.22669-2.8737 1.3275-5.7601 3.9487-6.9405 2.5637-1.2684 5.5693-0.74862 7.4044 0.96422-1.008-1.3212-3.0161-2.7219-5.3942-2.5922-2.3307 0.0379-4.5117 1.5189-5.2392 3.1273-1.1936 0.75125-1.3327 2.8974-1.8526 3.2907-0.70064 5.1454 1.3164 7.3675 4.7289 9.9829 0.53563 0.36165 0.15078 0.41702 0.22247 0.69221-1.1335-0.53036-2.171-1.3317-3.025-2.3128 0.45339 0.66268 0.94209 1.3069 1.5742 1.813-1.0697-0.36113-2.4978-2.5901-2.9138-2.6808 1.8425 3.2992 7.4745 5.7859 10.425 4.5518-1.3654 0.0506-3.0994 0.0279-4.6324-0.5388-0.64581-0.3316-1.5204-1.0175-1.3638-1.1456 4.0256 1.503 8.1831 1.1377 11.666-1.6538 0.88674-0.69063 1.8547-1.8647 2.1346-1.8805-0.42123 0.63369 0.07223 0.30472-0.25147 0.86406 0.88146-1.4239-0.38432-0.57991 0.91204-2.4588l0.47869 0.65899c-0.17925-1.183 1.4682-2.618 1.3006-4.4874 0.378-0.57148 0.42123 0.61576 0.02056 1.9306 0.55619-1.4587 0.14709-1.6933 0.28943-2.8974 0.15341 0.40489 0.35744 0.83456 0.46129 1.2621-0.36271-1.4102 0.37062-2.374 0.55302-3.1937-0.1803-0.0791-0.55935 0.62315-0.64686-1.0417 0.01315-0.72329 0.20191-0.37904 0.27414-0.55723-0.14129-0.0817-0.51401-0.63632-0.74018-1.6997 0.16291-0.25041 0.43862 0.64793 0.66215 0.68429-0.14392-0.84509-0.39118-1.4898-0.40172-2.1388-0.65372-1.3654-0.23144 0.18232-0.76074-0.58624-0.69589-2.1689 0.57675-0.50347 0.66321-1.4883 1.0533 1.5262 1.6538 3.8933 1.9306 4.8734-0.21088-1.1951-0.55092-2.3534-0.96687-3.4737 0.32106 0.1355-0.51612-2.4583 0.41701-0.7407-0.99587-3.6614-4.2587-7.0828-7.261-8.6876 0.3664 0.33582 0.8298 0.75758 0.66426 0.82401-1.4941-0.88833-1.2315-0.95845-1.4456-1.3338-1.2152-0.49503-1.2964 0.0406-2.1003 1e-3 -2.2933-1.2168-2.7351-1.0876-4.8454-1.8489l0.09594 0.44916c-1.5188-0.50611-1.7698 0.19088-3.4109 1e-3 -0.09965-0.0775 0.52614-0.28258 1.0417-0.3569-1.4688 0.19407-1.4002-0.28995-2.8373 0.0532 0.35374-0.24831 0.72911-0.41331 1.1066-0.6242-1.1973 0.0727-2.8595 0.69695-2.3465 0.12872-1.9532 0.87197-5.4227 2.0956-7.3696 3.9212l-0.06115-0.40909c-0.89201 1.0707-3.8901 3.1979-4.129 4.586l-0.23882 0.0554c-0.4634 0.78603-0.76443 1.6765-1.1324 2.4846-0.6068 1.0349-0.8899 0.39855-0.80344 0.56094-1.1941 2.4208-1.7882 4.4548-2.3001 6.1239 0.36482 0.54563 0.00897 3.2854 0.14655 5.478-0.59889 10.831 7.6011 21.345 16.564 23.773 1.3138 0.47078 3.267 0.4539 4.9287 0.50031-1.9601-0.56094-2.2132-0.29681-4.1237-0.96266-1.3776-0.6495-1.6791-1.3902-2.6555-2.2374l0.38643 0.68271c-1.9137-0.67745-1.1129-0.83824-2.6702-1.3312l0.41279-0.53826c-0.62051-0.0474-1.6433-1.0449-1.9227-1.599l-0.67902 0.0269c-0.81504-1.0048-1.25-1.7308-1.2178-2.2933l-0.21931 0.39117c-0.24831-0.42648-3.0002-3.7736-1.5726-2.9944-0.26518-0.24146-0.61787-0.39381-1.0001-1.0892l0.29048-0.3316c-0.68587-0.884-1.2642-2.0169-1.2199-2.3944 0.3664 0.49451 0.6205 0.5873 0.8725 0.67218-1.735-4.304-1.8325-0.23671-3.1458-4.381l0.2773-0.0221c-0.21246-0.32214-0.34267-0.66956-0.51348-1.0117l0.12125-1.2046c-1.2484-1.4424-0.349-6.1392-0.16817-8.7145 0.1239-1.047 1.0423-2.162 1.7397-3.9107l-0.42492-0.0727c0.81293-1.4171 4.6403-5.6931 6.4138-5.4738 0.8588-1.0786-0.1708-4e-3 -0.33898-0.27519 1.8868-1.9522 2.4799-1.3791 3.7531-1.7308 1.3723-0.81451-1.1783 0.31843-0.52772-0.31052 2.3739-0.60573 1.6817-1.3781 4.7779-1.6854 0.32686 0.1855-0.75757 0.2868-1.0296 0.52772 1.977-0.96793 6.2572-0.74702 9.0387 0.53669 3.2248 1.5083 6.8503 5.9646 6.9937 10.157l0.16291 0.0438c-0.08223 1.667 0.25516 3.5949-0.33055 5.3652l0.39592-0.83876"/>
      <path id="path5426" d="m15.5 298.42-0.11124 0.55197c0.51823 0.7038 0.92944 1.4661 1.59 2.0144-0.47553-0.92732-0.82822-1.3106-1.4788-2.5664"/>
      <path id="path5428" d="m16.723 298.37c-0.27414-0.30367-0.43546-0.6685-0.61787-1.0312 0.17397 0.63843 0.53035 1.1872 0.8609 1.7461l-0.24304-0.71486"/>
      <path id="path5430" d="m38.382 293.66-0.11545 0.29101c-0.21193 1.5067-0.67112 2.9976-1.3733 4.3804 0.77603-1.4587 1.2763-3.0546 1.4888-4.6714"/>
      <path id="path5432" d="m21.267 272.45c0.53194-0.19447 1.3085-0.107 1.8747-0.23512-0.73701 0.0618-1.4703 0.0986-2.1942 0.19089l0.31948 0.0442"/>
      <path id="path5434" d="m2.5671 282.4c0.12284 1.1356-0.85405 1.5768 0.21615 0.82719 0.57464-1.2937-0.22353-0.35693-0.21615-0.82719"/>
      <path id="path5436" d="m1.3082 287.65c0.24725-0.75758 0.29154-1.212 0.3859-1.6512-0.68166 0.87198-0.31421 1.0581-0.3859 1.6512"/>
      <path id="path5438" d="m24.099 297.34c-0.78762 0.01 0.14814 0.40488 1.1767 0.56356 0.28521-0.22246 0.54143-0.446 0.77128-0.66425-0.63948 0.15662-1.2911 0.1602-1.948 0.10063"/>
      <path id="path5440" d="m28.325 296.28c0.47078-0.64791 0.8124-1.3565 0.93313-2.0892-0.10596 0.5219-0.38801 0.97266-0.65583 1.4492-1.4724 0.92733-0.13918-0.5504-0.0011-1.1129-1.5826 1.9944-0.21826 1.1957-0.27625 1.7529"/>
      <path id="path5442" d="m29.887 292.22c0.09594-1.4187-0.27888-0.96951-0.40488-0.42914 0.14655 0.0769 0.26307 1.0006 0.40488 0.42914"/>
      <path id="path5444" d="m21.111 272.83c0.4207 0.0749 0.90888 0.1329 0.83876 0.23354 0.46182-0.10182 0.56568-0.19347-0.83876-0.23354"/>
      <path id="path5446" d="m21.95 273.06-0.29575 0.0618 0.27572-0.0253 0.02003-0.0365"/>
      <path id="path5448" d="m15.5 298.42-0.11124 0.55197c0.51823 0.7038 0.92944 1.4661 1.59 2.0144-0.47553-0.92732-0.82822-1.3106-1.4788-2.5664"/>
      <path id="path5450" d="m16.723 298.37c-0.27414-0.30367-0.43546-0.6685-0.61787-1.0312 0.17397 0.63843 0.53035 1.1872 0.8609 1.7461l-0.24304-0.71486"/>
      <path id="path5452" d="m38.382 293.66-0.11545 0.29101c-0.21193 1.5067-0.67112 2.9976-1.3733 4.3804 0.77603-1.4587 1.2763-3.0546 1.4888-4.6714"/>
      <path id="path5454" d="m21.267 272.45c0.53194-0.19447 1.3085-0.107 1.8747-0.23512-0.73701 0.0618-1.4703 0.0986-2.1942 0.19089l0.31948 0.0442"/>
      <path id="path5456" d="m2.5671 282.4c0.12284 1.1356-0.85405 1.5768 0.21615 0.82719 0.57464-1.2937-0.22353-0.35693-0.21615-0.82719"/>
      <path id="path5458" d="m1.3082 287.65c0.24725-0.75758 0.29154-1.212 0.3859-1.6512-0.68166 0.87198-0.31421 1.0581-0.3859 1.6512"/>
     </g>
    </g>
   </g>
  </g>
 </g>
</svg>
