<?xml version="1.0" encoding="UTF-8"?>
<svg id="svg1633" width="159.42mm" height="58.821mm" version="1.1" viewBox="0 0 159.42 58.821" xmlns="http://www.w3.org/2000/svg" xmlns:cc="http://creativecommons.org/ns#" xmlns:dc="http://purl.org/dc/elements/1.1/" xmlns:rdf="http://www.w3.org/1999/02/22-rdf-syntax-ns#">
 <metadata id="metadata1630">
  <rdf:RDF>
   <cc:Work rdf:about="">
    <dc:format>image/svg+xml</dc:format>
    <dc:type rdf:resource="http://purl.org/dc/dcmitype/StillImage"/>
    <dc:title/>
   </cc:Work>
  </rdf:RDF>
 </metadata>
 <g id="layer1" transform="translate(-25.368 -108.08)">
  <g id="g5630" transform="matrix(.70732 0 0 .70732 -861.46 81.884)" stroke-width=".37407">
   <g id="g12209" transform="matrix(.22662 0 0 .22623 857.2 505.99)" stroke-width=".37407">
    <path id="path12211" d="m2159.2-1850.2v18.6h-9.0999v15.933h9.0999v22.3c0 5.0284 0.5727 8.6501 1.7333 10.867 1.1607 2.2165 3.148 3.9088 5.9668 5.0667 1.9895 0.7939 4.2464 1.3694 6.7666 1.7333 2.5202 0.397 5.3496 0.6 8.4999 0.6 1.9565 0 3.9776-0.1015 6.0668-0.3 2.0891-0.1654 4.2448-0.4361 6.4666-0.8v-15.633h-3.6333c-2.4872 0-4.1377-0.609-4.9666-1.8-0.8292-1.1909-1.2334-4.5761-1.2334-10.2v-11.833h9.1333v-15.933h-9.1333v-18.6zm162.03 0v18.6h-9.1v15.933h9.1v22.3c0 5.0284 0.5728 8.6501 1.7333 10.867 1.1607 2.2165 3.1481 3.9088 5.9667 5.0667 1.9897 0.7939 4.2464 1.3694 6.7668 1.7333 2.5201 0.397 5.3496 0.6 8.4999 0.6 1.9565 0 3.9775-0.1015 6.0667-0.3 2.089-0.1654 4.2448-0.4361 6.4666-0.8v-15.633h-3.6333c-2.4871 0-4.1376-0.609-4.9667-1.8-0.829-1.1909-1.2333-4.5761-1.2332-10.2v-11.833h9.1332v-15.933h-9.1332v-18.6zm-571.07 0.1v74h24.267l0.2001-5.6c3.0838 2.3488 6.4861 4.109 10.233 5.3 3.7471 1.1578 7.8565 1.7333 12.333 1.7333 9.5171 0 17.129-2.7079 22.8-8.1333 5.6704-5.4585 8.5-12.702 8.5001-21.733-1e-4 -9.1636-2.8634-16.441-8.6001-21.833-5.7037-5.3923-13.384-8.0999-23.067-8.1-4.1119 1e-4 -7.9181 0.5079-11.4 1.5333-3.4489 0.9925-6.7162 2.5157-9.8001 4.5667v-21.733zm239.93 15.133c-12.933 1e-4 -22.937 2.6403-30 7.9333-7.0634 5.2932-10.6 12.807-10.6 22.5 0 9.66 3.5367 17.14 10.6 22.433 7.0631 5.2931 17.067 7.9333 30 7.9333 11.639 0 20.936-1.6582 27.933-4.9333s11.477-8.048 13.4-14.367h-27.7c-0.8953 1.4556-2.3773 2.5391-4.4332 3.3-2.0561 0.7609-4.6495 1.1667-7.7334 1.1667-4.6757 0-8.2802-0.8462-10.867-2.5334-2.5866-1.6871-3.9-4.09-3.9-7.1666h55.133v-0.9667c-1e-4 -11.579-3.5703-20.345-10.667-26.3-7.0634-5.9878-17.438-8.9999-31.167-9zm527.07 0c-12.933 1e-4 -22.903 2.6403-29.967 7.9333-7.0632 5.2932-10.6 12.807-10.6 22.5 0 9.66 3.5368 17.14 10.6 22.433 7.0633 5.2931 17.034 7.9333 29.967 7.9333 11.639 0 20.97-1.6582 27.967-4.9333s11.477-8.048 13.4-14.367h-27.733c-0.8953 1.4556-2.3441 2.5391-4.4 3.3-2.056 0.7609-4.6494 1.1667-7.7333 1.1667-4.6758 0-8.3135-0.8462-10.9-2.5334-2.5865-1.6871-3.8666-4.09-3.8666-7.1666h55.1v-0.9667c-1e-4 -11.579-3.5369-20.345-10.633-26.3-7.0633-5.9878-17.472-8.9999-31.2-9zm207.8 0.5c-3.316 1e-4 -6.2804 0.5076-8.9333 1.5-2.6528 0.9594-4.9434 2.3813-6.8666 4.3l-0.3-4.3667h-25.267v56.933h25.9v-29.4c0-3.9367 0.4713-6.7123 1.3667-8.3334 0.9284-1.6209 2.4445-2.4333 4.6-2.4333 2.0227 0 3.5384 0.7108 4.5333 2.1333 0.9948 1.3895 1.5 3.5219 1.5 6.4v0.4h22.533v-4.9666c0-7.675-1.5494-13.26-4.6333-16.8-3.0509-3.5728-7.8675-5.3666-14.433-5.3667zm-733.5 13.733c4.1782 1e-4 7.5128 0.8798 10 2.6 2.487 1.7203 3.9351 4.1573 4.2999 7.3h-30.267c0.6632-3.2089 2.3808-5.6794 5.1-7.3666 2.7523-1.6872 6.3568-2.5333 10.867-2.5334zm527.1 0c4.1783 1e-4 7.513 0.8798 10 2.6 2.4871 1.7203 3.9353 4.1573 4.3001 7.3h-30.267c0.6632-3.2089 2.3474-5.6794 5.0667-7.3666 2.7523-1.6872 6.3901-2.5333 10.9-2.5334zm-729.9 3.6c3.9792 1e-4 7.1455 1.1174 9.4999 3.4 2.3877 2.2827 3.5666 5.3626 3.5667 9.2-1e-4 3.8045-1.179 6.851-3.5667 9.1667-2.3544 2.2827-5.5207 3.4333-9.4999 3.4333-3.9131 0-7.0792-1.1506-9.4667-3.4333-2.3876-2.3157-3.5667-5.3622-3.5667-9.1667 0-3.8374 1.1791-6.9173 3.5667-9.2 2.3875-2.2826 5.5536-3.3999 9.4667-3.4zm691.17 59.093v11.633h14.7v-11.633zm-579.7 1.5667v15.9c-2.4099-2.8279-5.4535-4.2333-9.1667-4.2333-4.4507 0-8.0283 1.759-10.733 5.3-2.705 3.541-4.0668 8.342-4.0668 14.367 0 6.4427 1.3197 11.34 4 14.733 2.705 3.3688 6.2389 5.0666 10.567 5.0666 4.6968 0 8.059-1.9305 10.1-5.7666v5h13.8v-50.367zm487.07 0.4-13.967 0.2333-0.2333 12.2h-5.6v9.5667h5.6v11.833l-0.033 4.4c0 4.2542 1.052 7.3574 3.1668 9.3 2.1393 1.9427 5.4753 2.9 10 2.9 2.8033 0 5.6649-0.2677 8.5666-0.8333v-10.5c-1.623 0.418-3.0196 0.6333-4.1999 0.6333-0.7624 0-1.5203-0.1557-2.2334-0.5-0.7132-0.3688-1.0667-1.5065-1.0667-3.4v-13.833h7.5v-9.5667h-7.5v-12.433zm-615.27 11.667c-6.1968 0-11.153 1.9393-14.867 5.8s-5.5667 8.5934-5.5667 14.2c0 5.4099 1.871 9.936 5.6333 13.6 3.7624 3.6393 8.8136 5.4666 15.133 5.4666 5.6803 0 10.18-1.2846 13.5-3.8666 3.3443-2.6066 5.4219-5.7781 6.2334-9.4667l-13.733-0.9c-0.5657 3.0738-2.4366 4.6-5.6333 4.6-2.2132 0-3.7132-0.5688-4.5001-1.7-0.7868-1.1557-1.2174-2.906-1.2666-5.2667h25.133c0.024-0.9098 0.033-1.6169 0.033-2.1333 0-6.2705-1.8536-11.227-5.5666-14.867-3.6887-3.6393-8.5334-5.4666-14.533-5.4666zm372.47 0c-5.6804 0-10.301 1.8623-13.867 5.6-3.541 3.7131-5.3333 8.4458-5.3333 14.2 0 5.6312 1.8011 10.252 5.3666 13.867 3.5902 3.5902 8.2371 5.4 13.967 5.4 5.1148 0 9.2262-1.3792 12.3-4.1333 3.0984-2.7541 4.9431-6.3229 5.5334-10.7l-12.567-1.0667c-0.4918 3.7132-2.0355 5.5667-4.6667 5.5667-1.795 0-3.0622-0.7246-3.8-2.2-0.7131-1.4754-1.0666-3.7595-1.0666-6.8333 0-3.5656 0.3535-6.0738 1.0666-7.5 0.7378-1.4508 1.893-2.1667 3.4667-2.1667 2.459 0 3.9589 1.9743 4.5001 5.9333l12.866-1.0666c-0.4672-4.3033-2.2945-7.8634-5.4666-10.667-3.1722-2.8279-7.259-4.2333-12.3-4.2333zm121.2 0c-11.139 0-17.682 3.9223-19.6 11.767l13.433 1.2667c0.3934-2.7295 2.2732-4.1 5.6666-4.1 1.4508 0 2.5623 0.259 3.3 0.8 0.7623 0.541 1.1333 1.6525 1.1333 3.3v0.8333c-9.1722 0.4919-15.552 1.9743-19.167 4.4334-3.5903 2.4344-5.4001 5.6409-5.4001 9.6 0 2.9262 1.1115 5.5043 3.3001 7.7666 2.2131 2.2623 5.5404 3.4 9.9667 3.4 5.3852 0 9.3775-1.9917 12.033-6 0 1.8935 0.189 3.635 0.5333 5.2334h14c-0.7623-2.0164-1.1333-4.4475-1.1333-7.3v-15c0-4.0574-0.2504-6.7738-0.7666-8.2-0.492-1.4262-1.4913-2.788-2.9668-4.0667-1.4754-1.2787-3.4672-2.2098-6-2.8-2.5328-0.6147-5.3086-0.9333-8.3333-0.9333zm335.57 0c-6.1231 0-11.097 1.8623-14.933 5.6-3.8115 3.7377-5.7001 8.4267-5.7001 14.033 0 5.2132 1.8361 9.7481 5.5 13.633 3.664 3.8607 8.5787 5.8 14.8 5.8 6.2951 0 11.346-1.8622 15.133-5.6 3.8114-3.7623 5.7333-8.46 5.7334-14.067-1e-4 -5.5574-1.9045-10.178-5.6668-13.867-3.7377-3.6885-8.6945-5.5333-14.867-5.5333zm130.9 0c-5.1886 0-8.7836 2.0426-10.8 6.1v-5.3334h-13.633v37.533h14.7v-22.533c0-3.7377 1.353-5.6333 4.0334-5.6333 0.9098 0 1.6431 0.2924 2.2333 0.8333 0.6147 0.541 0.9333 1.7574 0.9333 3.7v23.633h14.733v-24.033c0-4.1065-0.4219-6.9857-1.2333-8.6333-0.8116-1.6721-2.1733-3.0005-4.0668-4.0333-1.8688-1.0574-4.1704-1.6-6.8999-1.6zm-729.4 0.7666v26.833c0 3.6885 0.9907 6.5081 2.9333 8.5 1.9673 1.9672 4.7344 2.9666 8.3 2.9666 5.7787 0 9.6415-2.3103 11.633-6.9333v6.1667h13.633v-37.533h-14.533v22.5c-1e-4 1.623-0.4132 2.8902-1.2 3.8-0.787 0.8853-1.8126 1.3334-3.0667 1.3334-1.1803 0-1.9487-0.2765-2.3667-0.8667-0.3935-0.6148-0.6-1.6912-0.6-3.1667v-23.6zm477.17 0v37.533h14.7v-37.533zm-707.77 7.9c1.4754 1e-4 2.7164 0.4481 3.6999 1.3334 1.0082 0.8607 1.5088 2.5672 1.5335 5.1h-10.467c0-4.2787 1.7415-6.4333 5.2334-6.4334zm123.9 0.4334c2.7787 0 4.1666 1.6978 4.1666 5.0666v9.3c0 1.9673-0.4306 3.441-1.2666 4.4-0.8115 0.9591-1.7864 1.4334-2.9667 1.4334-3.0984 0-4.6667-3.0595-4.6667-9.1334 0-3.0983 0.3099-5.6939 0.9-7.8333 0.6148-2.1393 1.8907-3.2333 3.8334-3.2333zm705.13 0.1333c1.8442 0 3.1202 0.7508 3.8333 2.3s1.0667 4.0836 1.0667 7.6c0 2.582-0.2503 5.0814-0.7667 7.4667-0.4917 2.3606-1.8797 3.5333-4.1666 3.5333-1.623 0-2.8553-0.6896-3.6667-2.0667-0.8115-1.4016-1.2-4.2633-1.2-8.5666 0-3.664 0.3797-6.2683 1.1666-7.8667 0.7869-1.5983 2.0366-2.4 3.7334-2.4zm-331.57 11.5v1.8c0 3.1968-0.5601 5.2656-1.6666 6.2-1.1066 0.9344-2.4263 1.4-4 1.4-2.4836 0-3.7334-1.1377-3.7334-3.4 0-3.3443 3.1294-5.336 9.4-6z" fill="#808080" stroke-width=".399"/>
    <path id="path12213" d="m1750.2-2072.9v64.733h23.767c0-13.131 0.5562-22.847 1.7-29.1 1.1466-6.3569 4.0169-12.401 8.6-18.133 4.583-5.8359 10.725-10.244 18.433-13.267 5.344-2.1676 11.999-3.5655 19.9-4.2333zm99.067 0c8.4587 0.5178 16.693 1.4652 24.7 2.8333v40.8c-9.895-1.3553-17.305-2.0333-22.2-2.0333-4.8957 3e-4 -9.3713 0.9862-13.433 2.9667-4.0624 1.9796-6.1 6.8216-6.1 14.533v5.6333h40.633v40.467h-40.167v117.43h100.77c-12.64-3.9927-23.467-10.712-32.467-20.2-15.52-16.466-23.267-35.739-23.267-57.833 0-23.761 8.0553-43.559 24.2-59.4 16.249-15.841 37.364-23.766 63.3-23.767 26.144 3e-4 47.134 7.8343 62.967 23.467 15.936 15.633 23.9 35.214 23.9 58.767 0 23.762-8.0887 43.622-24.233 59.567-9.19 9.0758-20.12 15.523-32.8 19.4h107.63c-23.239-6.7595-38.453-21.387-45.6-43.933l49.233-6.7333c2.8121 11.464 13.955 17.2 33.433 17.2 16.144 0 24.2-3.1469 24.2-9.4 0-2.7096-1.5418-4.7743-4.6667-6.2334-3.1249-1.5634-10.534-3.1366-22.2-4.7-32.29-4.4811-52.446-11.45-60.467-20.933-8.0203-9.5881-12.033-20.227-12.033-31.9 0-16.258 6.7926-29.395 20.333-39.4 13.541-10.109 31.289-15.166 53.267-15.167 38.539 3e-4 63.109 13.908 73.733 41.733l-47.167 8.9333c-4.3744-9.3795-13.605-14.067-27.667-14.067-6.6664 0-11.667 0.9255-15 2.8-3.2286 1.7716-4.8333 3.5285-4.8333 5.3 0 5.2111 5.0007 8.4205 15 9.5667 26.04 2.9182 43.696 5.8777 52.967 8.9 9.2697 3.0222 17.171 8.5422 23.733 16.567 2.0983 2.5665 3.8692 5.2938 5.2999 8.2-33.872 10.716-54.433 21.6-54.433 21.6s25.596-9.8157 55.767-18.533c2.1445 5.3947 3.2332 11.316 3.2334 17.8-5e-4 17.404-7.3179 31.22-21.9 41.433-6.7743 4.7787-14.749 8.4207-23.933 10.967h94.1c-23.236-6.7578-38.452-21.383-45.6-43.933l49.233-6.7333c2.8124 11.464 13.955 17.2 33.433 17.2 16.144 0 24.2-3.1469 24.2-9.4 0-2.7096-1.5754-4.7743-4.7-6.2334-3.1248-1.5634-10.501-3.1366-22.167-4.7-32.29-4.4811-52.446-11.45-60.467-20.933-0.5013-0.5993-0.9967-1.1925-1.4667-1.8 7.5712-1.7997 15.097-3.4259 22.267-4.6 36.131-5.917 62.416-7.0229 104.53-7.5333 2.4882 2.1196 4.8109 4.5232 7.0001 7.2 6.5619 8.0249 9.8333 17.707 9.8333 29.067 0 17.404-7.2845 31.22-21.867 41.433-6.7703 4.7759-14.748 8.4209-23.933 10.967h110.3c-12.483-3.788-23.247-10.037-32.267-18.767-15.936-15.528-23.933-34.772-23.933-57.7 0-4.2679 0.2588-8.4052 0.7666-12.433 1.8943-0.017 3.5416-0.049 5.5001-0.067 58.025-0.5196 115.58 2.9887 165.4 9.8333 0.042 1.3395 0.066 2.6976 0.067 4.0667-4e-4 2.1877-0.06 5.2106-0.1667 9.0666h-106.4c0.2133 10.005 1.9666 17.469 5.2999 22.367 3.3334 4.794 9.6923 7.2 19.067 7.2 13.54 0 21.504-6.5396 23.9-19.567l58.133 3.9334c-3.4377 15.632-12.234 28.953-26.4 40-6.8384 5.3215-14.86 9.3283-24.067 12.067h117.6c-12.492-3.788-23.247-10.037-32.267-18.767-15.936-15.528-23.9-34.772-23.9-57.7 0-0.3714 0.03-0.7305 0.033-1.1 24.032 3.6249 46.06 8.0758 65.167 13.233 0.371 9.1566 2.1242 16.083 5.2665 20.7 3.3328 4.794 9.6588 7.2 19.033 7.2 12.98 0 20.859-6.0269 23.6-18 33.498 5.0119 57.233 4.7333 57.233 4.7333v-2.4333-13.867-0.2333s-44.979 0.6631-109.43-8.7667c-20.298-2.9695-40.464-5.3405-60.7-7.3333 1.2069-21.204 8.9878-39.307 23.4-54.3 15.728-16.362 36.718-24.566 62.967-24.567 25.415 3e-4 45.909 7.7093 61.533 23.133 11.948 11.717 19.36 26.648 22.233 44.8v-129.37h-96.967c-18.736 1.4292-89.57 6.817-153.6 11.167-69.778 4.7037-96.023 8.8745-144.03 16.6-51.294 8.2536-96.042 21.278-116.37 27.667l7.0334 4.1334-15.6 2.9333-3.4667 15.467-7.6-13.9-15.767 1.4666 10.867-11.5-6.2667-14.567 14.3 6.8 11.9-10.5-1.3667 10.633c20.895-5.5133 72.009-18.4 119.37-25.533 61.148-9.2112 93.948-11.504 153.5-14.9 52.024-2.9671 99.984-4.8964 129.8-5.9667h-780.83zm453.33 61.433c38.539 3e-4 63.109 13.908 73.733 41.733l-47.167 8.9333c-4.3748-9.3795-13.605-14.067-27.667-14.067-6.6664 0-11.667 0.9255-15 2.8-3.2288 1.7716-4.8333 3.5285-4.8333 5.3 0 5.2111 5.0007 8.4205 15 9.5667 26.04 2.9182 43.696 5.8777 52.967 8.9 2.753 0.8976 5.3874 2.0282 7.8999 3.3667-33.925 0.2225-65.924 2.8472-99.633 9.9333-7.2119 1.516-14.124 3.1592-20.7 4.8667-5.4602-8.2138-8.2-17.136-8.2-26.767 0-16.258 6.7593-29.395 20.3-39.4 13.541-10.109 31.322-15.166 53.3-15.167zm175.47 0c25.415 3e-4 45.943 7.7093 61.567 23.133 14.044 13.772 21.794 32.003 23.3 54.667-40.326-3.6922-81.061-6.0222-123.77-8.5333-16.082-0.9457-31.349-1.7056-46.1-2.2 3.0144-16.204 10.366-30.362 22.033-42.5 15.728-16.362 36.718-24.566 62.967-24.567zm198.67 36.333c-14.015 3.0753-32.27 9.8539-37.7 27.6h44.367c-0.7597-14.559-6.6667-27.6-6.6667-27.6zm-182.13 0.4c-14.791 4.2664-27.628 9.8418-38.1 27.2h44.367c-0.7512-14.561-6.2666-27.2-6.2666-27.2zm-529.7 2.3666c-7.187 0-12.434 3.3594-15.767 10.133-3.3331 6.7744-5 17.938-5 33.467 0 18.238 1.728 30.326 5.1666 36.267 3.4374 5.8361 8.5922 8.7667 15.467 8.7667 9.687 0 15.55-4.9952 17.633-15 2.1865-10.109 3.2999-20.657 3.2999-31.6 0-14.903-1.5111-25.634-4.5333-32.2-3.0204-6.5656-8.4547-9.8334-16.267-9.8334zm-214.7 4.6667v117.43h23.767v-117.43zm994.17 69.967c-4.0582 13.653-12.451 25.458-25.2 35.4-6.8398 5.3228-14.865 9.3283-24.067 12.067h49.267z" color="#000000" fill="#f60"/>
    <rect id="rect12215" x="1750" y="-1771.6" width="994.54" height="8.9172" color="#000000" fill="#f60"/>
   </g>
  </g>
 </g>
</svg>
