<?xml version="1.0" encoding="UTF-8"?>
<svg id="svg32" width="778.31" height="139.71" version="1.1" viewBox="0 0 778.31 139.71" xmlns="http://www.w3.org/2000/svg" xmlns:cc="http://creativecommons.org/ns#" xmlns:dc="http://purl.org/dc/elements/1.1/" xmlns:rdf="http://www.w3.org/1999/02/22-rdf-syntax-ns#">
 <metadata id="metadata38">
  <rdf:RDF>
   <cc:Work rdf:about="">
    <dc:format>image/svg+xml</dc:format>
    <dc:type rdf:resource="http://purl.org/dc/dcmitype/StillImage"/>
    <dc:title/>
   </cc:Work>
  </rdf:RDF>
 </metadata>
 <polygon id="polygon2" transform="translate(-31.18,-50.69)" points="267.31 96.28 243.14 96.28 243.14 155.49 231.16 155.49 231.16 96.28 207 96.28 207 85.59 267.31 85.59" fill="#231f20"/>
 <polygon id="polygon4" transform="translate(-31.18,-50.69)" points="322.74 85.59 333.92 85.59 349 138.62 349.2 138.62 365.37 85.59 377.96 85.59 355.89 155.49 343.01 155.49 328.33 104.27 328.13 104.27 313.45 155.49 300.57 155.49 278.6 85.59 291.28 85.59 307.36 138.62 307.56 138.62" fill="#231f20"/>
 <path id="path6" d="m386.98 95.62c13.18 0 23.46-9.79 23.46-26.17 0-15.78-10.18-25.46-23.46-25.46s-23.47 9.68-23.47 25.46c0 16.38 10.29 26.17 23.47 26.17m0-61.92c20.27 0 35.65 14.08 35.65 35.75 0 22.17-15.38 36.55-35.65 36.55s-35.75-14.38-35.75-36.55c0-21.67 15.48-35.75 35.75-35.75" fill="#231f20"/>
 <polygon id="polygon8" transform="translate(-31.18,-50.69)" points="556.47 155.49 556.47 116.42 556.47 85.59 568.45 85.59 568.45 123.27 568.45 155.49" fill="#231f20"/>
 <path id="path10" d="m588.76 33.7a42.57 42.57 0 0 1 24.77 7.89s-6.87 8-7.2 7.82a31.34 31.34 0 0 0-17.27-5.32c-14.38 0-23.86 10.38-23.86 25.16 0 16.08 8.88 26.37 23.86 26.37a28.93 28.93 0 0 0 14-3.4v-16.58h-17.59v-8.88h28.65v31.65a44 44 0 0 1-25.36 7.59c-21.87 0-35.85-14.78-35.85-36.75 0-20.57 14.18-35.55 35.85-35.55" fill="#231f20"/>
 <polygon id="polygon12" transform="translate(-31.18,-50.69)" points="732.49 85.59 732.49 155.49 720.91 155.49 720.91 103.37 697.34 136.32 673.78 103.37 673.78 155.49 662.29 155.49 662.29 85.59 674.38 85.59 697.44 118.44 720.51 85.59" fill="#231f20"/>
 <path id="path14" d="m733.98 80.04h22.76l-11.28-32.56h-0.2zm4.39-45.14h14.08l25.86 69.9h-12.88l-5.29-15.08h-29.46l-5.19 15.08h-13z" fill="#231f20"/>
 <path id="path16" d="m463.31 89.72c6.3 3.41 12.24 5.69 19.93 5.69 9.19 0 13.79-4 13.79-9.58 0-15.78-39.35-5.4-39.35-32.06 0-11.18 9.29-20.07 25-20.07 9.18 0 18.43 2.22 25.66 6.44l-7.84 8a40.68 40.68 0 0 0-17.46-3.83c-8.08 0-12.88 4.09-12.88 9.28 0 15.68 39.35 5 39.35 32.16 0 11.48-8.69 20.27-26.27 20.27-10.28 0-21.43-3.65-28-8.2z" fill="#231f20"/>
 <polygon id="polygon18" transform="translate(-31.18,-50.69)" points="101.02 50.69 31.18 120.54 101.02 190.4 170.87 120.54" fill="#00a5bd"/>
 <path id="path20" d="m33 89.65c-0.54-22.36 26.37-19.45 26.37-30.91 0-3.73-2.91-6.91-9.42-6.91-4.74 0-9.29 2.37-12.61 5.42l-4.94-5a27.11 27.11 0 0 1 17.89-7.25c11.19 0 16.88 6.24 16.88 13.56 0 16.88-26.17 13.9-26.17 28h25.76v6.75h-33.69z" fill="#fff"/>
 <path id="path22" d="m119.82 56.64h-28.55c-11.64 0-20.43 9.3-20.43 21.69 0 9.83 6.37 15.8 15.38 15.8 11.73 0 20.54-9.29 20.54-21.62a16.84 16.84 0 0 0-2.89-9.94h10zm-32.89 31.32c-5.15 0-8.2-3.32-8.2-9.69 0-8.14 5.42-15.46 11.93-15.46 5.08 0 8.14 3.32 8.14 9.76 0.02 8.13-5.32 15.39-11.83 15.39z" fill="#fff"/>
</svg>
